<?xml version="1.0" encoding="utf-8"?>
<!-- Generator: Adobe Illustrator 16.0.0, SVG Export Plug-In . SVG Version: 6.00 Build 0)  -->
<!DOCTYPE svg PUBLIC "-//W3C//DTD SVG 1.1//EN" "http://www.w3.org/Graphics/SVG/1.1/DTD/svg11.dtd">
<svg version="1.1" id="Layer_1" xmlns="http://www.w3.org/2000/svg" xmlns:xlink="http://www.w3.org/1999/xlink" x="0px" y="0px"
	 width="600px" height="600.003px" viewBox="0 0 600 600.003" enable-background="new 0 0 600 600.003" xml:space="preserve">
<g>
	<path fill="#FF0000" d="M600,300.02c0,165.681-134.299,299.983-299.983,299.983C134.331,600.003,0,465.7,0,300.02
		C0,134.329,134.331,0,300.017,0C465.701,0,600,134.329,600,300.02z"/>
	<g>
		<g>
			<defs>
				<rect id="SVGID_1_" x="103.257" y="116.562" width="329.656" height="346.313"/>
			</defs>
			<clipPath id="SVGID_2_">
				<use xlink:href="#SVGID_1_"  overflow="visible"/>
			</clipPath>
			<path clip-path="url(#SVGID_2_)" fill-rule="evenodd" clip-rule="evenodd" fill="#FFFFFF" d="M134.541,376.347
				c-7.716,7.861-21.76,1.713-31.208,0c19.953-21.004,52.28-29.642,76.063-46.813c-0.055-1.891-2.385-1.506-3.899-1.94
				c26.049-17.567,53.839-26.934,78.012-48.765c10.375-9.379,16.213-21.356,25.347-29.261c27.986-24.19,83.292-45.476,93.611-85.827
				c6.711-26.27,8.692-58.997,43.482-42.369c7.033,10.615,6.697,17.434,9.161,32.615c-2.594,0-5.73-2.088-8.335-2.088
				c-12.134,37.939,16.483,72.164,16.135,105.477c-0.37,36.524-30.672,58.093-62.398,72.158c2.671,3.824,11.938,1.06,15.601,3.903
				c12.488,19.269,22.815,42.171,13.648,66.314c-1.445,3.813-7.608,5.867-11.699,11.696c-4.825,6.863-5.912,17.63-9.755,21.456
				c-4.132,4.126-44.898,26.332-56.543,27.304c-11.544,0.971-21.511-1.894-29.252-7.799c-6.474,2.409-8.143,11.779-17.552,5.853
				c8.385,10.955-12.313-0.903-17.555-1.958c-19.531-3.895-42.831-9.175-60.453-9.748c-9.373-8.826-7.314-29.089-23.408-31.206
				c-6.087-10.864-3.848-38.078-3.898-48.766c-9.055-2.631-16.132,12.072-31.208,9.763H134.541L134.541,376.347z"/>
		</g>
		<path fill-rule="evenodd" clip-rule="evenodd" fill="#030101" d="M391.893,128.624c2.283,0.316,1.642,3.562,1.949,5.856
			c4.072-0.827,5.16,1.334,7.797,1.951c-1.435,3.467-3.542,0.278-5.848,0c-1.899,0.051-1.519,2.39-1.949,3.898
			C387.021,138.003,388.389,133.653,391.893,128.624L391.893,128.624z"/>
		<path fill-rule="evenodd" clip-rule="evenodd" fill="#030101" d="M391.893,265.175c2.593,0,5.197,0,7.794,0
			c-1.767,3.434-7.174,3.222-7.794,7.802C386.05,271.691,393.753,268.804,391.893,265.175L391.893,265.175z"/>
		<path fill-rule="evenodd" clip-rule="evenodd" fill="#FFFFFF" d="M370.436,337.336c5.603-4.199,14.05,5.371,19.502,7.799
			c-2.063,7.946,0.547,9.239,0,19.513C386.34,352.641,380.246,343.132,370.436,337.336L370.436,337.336z"/>
		<path fill-rule="evenodd" clip-rule="evenodd" fill="#030101" d="M378.241,354.891c-4.291-4.606-9.539-10.403-17.553-5.858
			C362.446,340.699,381.606,345.438,378.241,354.891L378.241,354.891z"/>
		<path fill-rule="evenodd" clip-rule="evenodd" fill="#FFFFFF" d="M270.987,364.647c-7.042-3.169-20.403,3.009-29.252-1.952
			C240.702,344.34,278.407,350.11,270.987,364.647L270.987,364.647z"/>
		<g>
			<defs>
				<rect id="SVGID_3_" x="103.257" y="116.562" width="329.656" height="346.313"/>
			</defs>
			<clipPath id="SVGID_4_">
				<use xlink:href="#SVGID_3_"  overflow="visible"/>
			</clipPath>
			<path clip-path="url(#SVGID_4_)" fill-rule="evenodd" clip-rule="evenodd" fill="#FFFFFF" d="M204.674,356.843
				c0,3.9,0,7.805,0,11.702c-11.585,5.974-24.323,11.779-31.202-1.961C179.12,357.053,193.878,350.192,204.674,356.843
				L204.674,356.843z"/>
			<path clip-path="url(#SVGID_4_)" fill-rule="evenodd" clip-rule="evenodd" fill="#030101" d="M280.733,421.202
				c-3.772,8.48,8.5,10.796,3.907,13.651c-6.053-4.63-13.101,2.791-17.555,5.85c0.481,6.024,1.979,11.023,3.902,15.601
				c4.55,0,9.103,0,13.653,0c5.346-9.603,7.88-22.011,13.646-31.201c-4.425-3.49-7.472-6.963-7.806-9.753
				C288.799,416.894,283.25,416.02,280.733,421.202L280.733,421.202z M290.479,382.193c-4.333-3.228-10.57,0.417-11.686-1.954
				c3.712-4.291-2.603-10.371-5.86-13.655c-7.342-1.491-9.318,2.396-15.6,1.961c-6.749,22.387-25.646,29.415-39.002,48.763
				c-1.76,6.464,10.831,8.451,5.851,11.69c-7.629-1.471-6.427-11.773-15.605-11.69c-6.916,11.885,11.279,17.422,1.952,21.447
				c4.723,3.724,9.475-2.127,15.603,1.948c-0.396-7.402-12.097-3.499-11.702-11.705c6.139,1.662,8.738,6.871,15.604,7.811
				c19.076-14.44,34.024-37.721,46.797-52.663c-3.656,2.841-0.233,12.769-3.898,15.606c2.903,2.307,8.719,1.689,7.8,7.799
				c-8.485,1.984-8.96-4.034-13.648-5.85c-9.619,15.73-11.556,23.476-23.399,39.002c-3.721-0.829-3.529-5.563-9.754-3.895
				c-1.893,10.146,11.475,19.749,25.35,15.601C267.69,427.894,294.041,412.331,290.479,382.193L290.479,382.193z M196.877,415.35
				c-0.108,1.192-0.292,2.303-1.951,1.958c-1.19,0.105-2.309,0.289-1.952,1.945c7.619,2.622,3.092,7.152-1.952,1.949
				c0.335,2.924-0.694,7.19,1.952,7.796c6.976-8.723,11.664,11.549,17.554,3.906C204.56,428.473,200.347,422.286,196.877,415.35
				L196.877,415.35z M187.124,403.649c2.143-7.329-8.457-6.597,0-9.75c6.43,3.978,6.165,14.632,13.655,17.549
				c18.256-15.272,40.077-19.406,48.757-40.957C238.94,353.102,161.334,382.637,187.124,403.649L187.124,403.649z M241.735,362.695
				c8.849,4.961,22.21-1.217,29.252,1.952C278.407,350.11,240.702,344.34,241.735,362.695L241.735,362.695z M391.893,405.604
				c4.314-13.329,8.973-29.715,5.844-44.861c-7.438,0.366-4.719,10.888-11.698,11.706c-2.787-0.479-3.286-3.219-5.856-3.904
				c-3.23,3.91-5.23,9.06-11.692,9.751c-22.854-15.5-51.983-24.737-85.798-29.264c-3.305,3.854-9.832,4.479-7.8,13.663
				c6.12,1.013,10.874,3.417,15.588,5.85c7.13-7.078-1.243-12.115,0-15.606c1.338,4.53,6.486,5.222,7.806,9.757
				c-1.32,4.521-6.468,5.221-7.806,9.754c26.838,12.473,57.9,30.087,87.762,33.155c-0.248,4.309-8.272,0.824-11.71,1.946
				c-4.978,2.483,1.816,9.556-1.943,9.757c-9.328-3.458-22.255,1.166-19.499,7.795c0.2-5.002,7.263-3.136,9.749-5.85
				c-6.325,6.898,6.105,6.851,3.902,15.601c-4.697-0.797-4.242,3.562-9.752,1.955c1.042-9.497-7.774-9.125-9.759-15.606
				c8.397,0.927,2.499-5.25,5.859-5.853c-13.293-22.817-39.233-31.322-60.449-39.003c15.374,2.835,9.023,22.387,7.803,29.258
				c13.25,1.698,30.186,16.596,44.848,23.394c-10.467,11.103-17.782-11.174-31.202-9.745c-6.991,11.706,2.758,5.375-3.905,15.601
				c3.498,2.469,15.312,6.647,11.705,9.754c-4.64-0.697-11.221-9.414-15.603-3.904c-2.049,5.307,11.766,4.477,5.842,13.657
				c29.629,7.303,50.647-15.054,74.113-25.362c0-3.896,0-7.796,0-11.69c-2.844-1.069-10.086,2.276-9.752-1.958
				c10.283,0.194,6.648-0.88,1.946-3.901c5.521-2.037,13.379,3.222,13.648,0c-2.183-0.413-3.031-2.161-3.902-3.897
				C392.637,409.334,381.849,401.405,391.893,405.604L391.893,405.604z M321.681,354.891c6.517,3.893,16.647,4.167,23.408,7.805
				c-2.147-10.02,8.092-17.818,5.851-21.456C345.021,346.95,331.161,347.963,321.681,354.891L321.681,354.891z M286.589,343.186
				c-6.411-0.605-15.974-4.51-21.453,0c-0.18-3.065,0.263-6.769-3.896-5.85C261.687,348.586,276.376,357.117,286.589,343.186
				L286.589,343.186z M389.938,364.647c0.547-10.273-2.063-11.566,0-19.513c-5.452-2.428-13.899-11.998-19.502-7.799
				C380.246,343.132,386.34,352.641,389.938,364.647L389.938,364.647z M348.988,356.843c5.374,6.978,13.035,11.664,23.401,13.648
				c6.289-2.814,8.651-9.547,11.694-15.601c-5.096-7.249-11.889-12.801-19.496-17.555c1.081,0.012,2.218-1.577,0-1.955
				C359.603,342.754,350.786,346.286,348.988,356.843L348.988,356.843z M173.472,366.584c6.879,13.74,19.617,7.935,31.202,1.961
				c0-3.897,0-7.802,0-11.702C193.878,350.192,179.12,357.053,173.472,366.584L173.472,366.584z M109.111,372.449
				c6.858,11.067,15.49-0.178,25.354,3.897c-7.718,7.861-21.759,1.713-31.208,0c19.953-21.004,52.283-29.642,76.064-46.813
				c-0.053-1.891-2.383-1.506-3.902-1.94c26.054-17.567,53.841-26.934,78.015-48.765c10.369-9.376,16.207-21.356,25.358-29.261
				c27.972-24.19,83.284-45.476,93.596-85.827c6.711-26.27,5.309-57.595,43.857-43.822c4.43,5.731,8.125,18.887,8.792,34.068
				c-3.161,1.435-5.204,0.101-7.797-1.243c-12.137,37.939,15.938,71.319,15.592,104.632c-0.374,36.524-30.673,58.093-62.398,72.158
				c2.677,3.824,11.95,1.06,15.603,3.903c12.491,19.269,22.811,42.171,13.648,66.314c-1.445,3.813-7.596,5.867-11.699,11.696
				c-4.825,6.863-5.918,17.63-9.746,21.456c-4.131,4.126-44.907,26.332-56.561,27.304c-11.534,0.971-21.508-1.894-29.237-7.799
				c-6.486,2.409-8.161,11.779-17.552,5.853c8.358,10.955-12.321-0.903-17.558-1.958c-19.534-3.895-42.837-9.175-60.456-9.748
				c-9.376-8.826-7.317-29.089-23.405-31.206c-6.089-10.864-3.854-38.078-3.899-48.766c-9.06-2.631-16.129,12.072-31.205,9.763
				c29.89-13.675,56.634-30.48,91.667-39.011c-5.997,4.299-7.938,9.652-11.704,11.696c0.79,4.418,11.431-1.03,7.801,7.811
				c3.43-0.47,4.447-3.352,3.902-7.811c10.758,7.025,22.015-5.8,31.206,0c4.452-3.957-8.496-6.992-9.755-11.696
				c-7.248,1.21-12.253,4.645-19.502,5.85c-1.714-6.258,6.429-2.673,5.85-7.805c-18.822-5.362-27.855-0.611-44.856-3.893
				c18.559-3.762,34.706-2.651,50.711-1.954c0.547,3.15-1.843,3.354-1.951,5.847c15.119,0.171,14.08-15.811,31.198-13.648
				c-1.364,5.781-11.208,3.092-11.693,9.756c43.886-3.292,66.013-26.559,99.449-33.158c-12.672,13.563-46.158,14.156-50.701,35.107
				c9.799-7.364,9.492-6.697,15.594-13.648c5.436-0.877-1.518,10.628,3.907,9.745c5.045-6.21-0.505-3.573,5.845-1.94
				c10.391,2.657,20.676-7.908,27.305-11.705c5.538,2.596-1.506,8.673-1.949,11.705c30.956-11.558,62.956-26.771,68.246-60.465
				c4.797-30.498-14.954-57.856-19.492-85.83c5.138-4.32-1.494-12.996,1.939-15.609c-5.089-6.413-13.663,2.238-13.646-7.808
				c4.821,3.842,17.039,2.599,17.55-3.895c-0.438-5.419-6.187-5.522-7.799-9.76c3.735-4.863,8.878,8.106,15.05,7.262
				c0.732-2.15-1.131-6.021-1.066-8.608c0.021-0.848-2.111-0.992-3.204-3.251c-0.641-1.308,2.053-1.258,1.97-1.938
				c-1.577-12.807-9.25-25.218-28.344-16.867c-17.52,7.654-11.641,36.484-21.457,56.567c-9.861,20.198-29.505,23.886-31.206,37.065
				c-50.693,22.755-80.996,65.924-122.847,97.526c-13.712-0.706-18.053,7.958-29.259,9.748c-0.316,2.271,0.433,3.479,1.952,3.903
				C164.767,343.587,135.494,356.574,109.111,372.449L109.111,372.449z"/>
		</g>
		<path fill-rule="evenodd" clip-rule="evenodd" fill="#FFFFFF" d="M372.39,358.789c-3.693-1.634-11.231-9.402-13.649-5.851
			C362.432,354.581,369.966,362.344,372.39,358.789L372.39,358.789z M360.688,349.032c8.014-4.545,13.262,1.252,17.553,5.858
			C381.606,345.438,362.446,340.699,360.688,349.032L360.688,349.032z M364.588,335.381c2.218,0.378,1.081,1.967,0,1.955
			c7.607,4.754,14.4,10.306,19.496,17.555c-3.043,6.054-5.405,12.786-11.694,15.601c-10.366-1.984-18.027-6.671-23.401-13.648
			C350.786,346.286,359.603,342.754,364.588,335.381L364.588,335.381z"/>
		<path fill-rule="evenodd" clip-rule="evenodd" fill="#FFFFFF" d="M261.24,337.336c4.159-0.919,3.716,2.784,3.896,5.85
			c5.479-4.51,15.042-0.605,21.453,0C276.376,357.117,261.687,348.586,261.24,337.336L261.24,337.336z"/>
		<path fill-rule="evenodd" clip-rule="evenodd" fill="#FFFFFF" d="M350.939,341.239c2.241,3.638-7.998,11.437-5.851,21.456
			c-6.761-3.638-16.892-3.912-23.408-7.805C331.161,347.963,345.021,346.95,350.939,341.239L350.939,341.239z"/>
		<path fill-rule="evenodd" clip-rule="evenodd" fill="#FFFFFF" d="M374.334,386.098c-2.192,2.997-5.6,4.802-7.803,7.802
			c1.523,0.428,2.265,1.627,1.958,3.895c10.381,2.593,22.573-11.638,19.498-9.744C383.304,392.766,382.825,383.31,374.334,386.098
			L374.334,386.098z M327.539,444.607c0.934,15.68,22.659-6.128,17.55-1.958C331.436,441.211,339.298,443.556,327.539,444.607
			L327.539,444.607z M380.182,407.551c0.871,1.736,1.72,3.484,3.902,3.897c-0.27,3.222-8.128-2.037-13.648,0
			c4.702,3.021,8.337,4.096-1.946,3.901c-0.334,4.234,6.908,0.889,9.752,1.958c0,3.895,0,7.795,0,11.69
			c-23.466,10.309-44.484,32.665-74.113,25.362c5.924-9.181-7.892-8.351-5.842-13.657c4.382-5.51,10.963,3.207,15.603,3.904
			c3.606-3.106-8.207-7.285-11.705-9.754c6.663-10.226-3.086-3.895,3.905-15.601c13.42-1.429,20.735,20.848,31.202,9.745
			c-14.662-6.798-31.598-21.695-44.848-23.394c1.22-6.871,7.57-26.423-7.803-29.258c21.215,7.681,47.156,16.186,60.449,39.003
			c-3.36,0.603,2.538,6.779-5.859,5.853c1.984,6.481,10.801,6.109,9.759,15.606c5.51,1.606,5.055-2.752,9.752-1.955
			c2.203-8.75-10.228-8.702-3.902-15.601c-2.486,2.714-9.549,0.848-9.749,5.85c-2.756-6.629,10.171-11.253,19.499-7.795
			c3.76-0.201-3.034-7.273,1.943-9.757c3.438-1.122,11.462,2.362,11.71-1.946c-29.861-3.068-60.924-20.683-87.762-33.155
			c1.338-4.533,6.486-5.232,7.806-9.754c-1.32-4.535-6.468-5.227-7.806-9.757c-1.243,3.491,7.13,8.528,0,15.606
			c-4.714-2.433-9.468-4.837-15.588-5.85c-2.032-9.184,4.496-9.81,7.8-13.663c33.814,4.526,62.943,13.764,85.798,29.264
			c6.462-0.691,8.462-5.841,11.692-9.751c2.57,0.686,3.069,3.426,5.856,3.904c6.979-0.818,4.26-11.34,11.698-11.706
			c3.129,15.146-1.529,31.532-5.844,44.861C381.849,401.405,392.637,409.334,380.182,407.551L380.182,407.551z"/>
		<path fill-rule="evenodd" clip-rule="evenodd" fill="#030101" d="M345.089,442.649c5.109-4.17-16.616,17.638-17.55,1.958
			C339.298,443.556,331.436,441.211,345.089,442.649L345.089,442.649z"/>
		<path fill-rule="evenodd" clip-rule="evenodd" fill="#030101" d="M358.74,352.938c2.418-3.552,9.956,4.217,13.649,5.851
			C369.966,362.344,362.432,354.581,358.74,352.938L358.74,352.938z"/>
		<path fill-rule="evenodd" clip-rule="evenodd" fill="#FFFFFF" d="M228.081,372.449c-0.31,6.156-0.069,11.765,3.901,13.648
			c2.429-3.393,0.056-13.79,0-15.606C231.554,372.012,230.351,372.759,228.081,372.449L228.081,372.449z M249.536,370.491
			c-8.68,21.551-30.501,25.685-48.757,40.957c-7.49-2.917-7.225-13.571-13.655-17.549c-8.457,3.153,2.143,2.421,0,9.75
			C161.334,382.637,238.94,353.102,249.536,370.491L249.536,370.491z"/>
		<path fill-rule="evenodd" clip-rule="evenodd" fill="#FFFFFF" d="M210.529,432.904c-5.89,7.643-10.578-12.629-17.554-3.906
			c-2.646-0.605-1.617-4.872-1.952-7.796c5.044,5.203,9.571,0.673,1.952-1.949c-0.357-1.656,0.762-1.84,1.952-1.945
			c1.658,0.345,1.843-0.766,1.951-1.958C200.347,422.286,204.56,428.473,210.529,432.904L210.529,432.904z"/>
		<path fill-rule="evenodd" clip-rule="evenodd" fill="#FFFFFF" d="M290.479,415.35c0.334,2.79,3.381,6.263,7.806,9.753
			c-5.766,9.19-8.299,21.599-13.646,31.201c-4.55,0-9.103,0-13.653,0c-1.924-4.577-3.421-9.576-3.902-15.601
			c4.455-3.059,11.502-10.479,17.555-5.85c4.593-2.855-7.679-5.171-3.907-13.651C283.25,416.02,288.799,416.894,290.479,415.35
			L290.479,415.35z"/>
		<path fill-rule="evenodd" clip-rule="evenodd" fill="#030101" d="M231.982,370.491c0.056,1.816,2.429,12.214,0,15.606
			c-3.97-1.884-4.211-7.492-3.901-13.648C230.351,372.759,231.554,372.012,231.982,370.491L231.982,370.491z"/>
		<path fill-rule="evenodd" clip-rule="evenodd" fill="#030101" d="M259.282,376.347c1.76,4.005-3.995,11.644,1.958,17.553
			C250.292,396.123,255.954,377.82,259.282,376.347L259.282,376.347z"/>
		<path fill-rule="evenodd" clip-rule="evenodd" fill="#030101" d="M387.987,388.05c3.075-1.894-9.117,12.337-19.498,9.744
			c0.307-2.268-0.435-3.467-1.958-3.895c2.203-3,5.61-4.805,7.803-7.802C382.825,383.31,383.304,392.766,387.987,388.05
			L387.987,388.05z"/>
		<path fill-rule="evenodd" clip-rule="evenodd" fill="#FFFFFF" d="M261.24,393.899c-5.953-5.909-0.198-13.548-1.958-17.553
			C255.954,377.82,250.292,396.123,261.24,393.899L261.24,393.899z M259.282,452.409c-13.875,4.148-27.242-5.454-25.35-15.601
			c6.225-1.669,6.033,3.065,9.754,3.895c11.843-15.526,13.78-23.271,23.399-39.002c4.688,1.815,5.163,7.834,13.648,5.85
			c0.918-6.109-4.897-5.492-7.8-7.799c3.665-2.838,0.242-12.766,3.898-15.606c-12.773,14.942-27.721,38.223-46.797,52.663
			c-6.867-0.939-9.465-6.148-15.604-7.811c-0.395,8.206,11.307,4.303,11.702,11.705c-6.128-4.075-10.88,1.775-15.603-1.948
			c9.327-4.025-8.868-9.563-1.952-21.447c9.178-0.083,7.976,10.22,15.605,11.69c4.98-3.239-7.611-5.227-5.851-11.69
			c13.356-19.348,32.253-26.376,39.002-48.763c6.282,0.435,8.258-3.452,15.6-1.961c3.257,3.284,9.572,9.364,5.86,13.655
			c1.116,2.371,7.353-1.273,11.686,1.954C294.041,412.331,267.69,427.894,259.282,452.409L259.282,452.409z"/>
	</g>
	<g>
		<path fill="#FFFFFF" d="M44.56,337.609c0.425-7.428,4.368-9.951,8.376-10.622c6.203-1.037,11.613,2.864,13.193,12.313
			c1.66,9.924-2.561,15.191-6.282,15.814c-1.908,0.318-3.476-0.842-3.795-2.75c-0.71-4.247,5.676-4.187,4.351-12.107
			c-0.678-4.056-3.296-5.923-5.586-5.54c-1.384,0.231-2.799,1.155-3.02,3.938l-0.766,9.202c-0.624,7.413-4.321,9.355-7.995,9.97
			c-7.634,1.277-11.678-5.306-12.788-11.938c-1.021-6.107,1.209-13.887,5.79-14.652c1.956-0.327,3.38,1.151,3.7,3.06
			c0.606,3.626-4.61,3.813-3.39,11.112c0.606,3.627,2.612,5.352,4.998,4.952s2.67-3.39,2.828-5.967L44.56,337.609z"/>
		<path fill="#FFFFFF" d="M42.242,321.285l0.079,1.207c0.128,1.979-0.591,2.85-2.136,2.95c-1.545,0.1-2.371-0.671-2.499-2.65
			l-0.079-1.207l-4.297,0.278c-2.317,0.15-3.615-1.172-3.752-3.296s0.979-3.603,3.296-3.753l4.297-0.278l-0.138-2.124
			c-0.134-2.076,0.421-3.227,2.111-3.337c1.69-0.109,2.39,0.961,2.524,3.037l0.138,2.124l14.098-0.913
			c1.062-0.069,1.604-0.687,1.522-1.941l-0.066-1.014c-0.1-1.545,0.709-2.519,2.206-2.615c2.028-0.132,3.251,1.534,3.47,4.914
			c0.332,5.117-1.655,7.379-5.807,7.648L42.242,321.285z"/>
		<path fill="#FFFFFF" d="M26.421,300.515c-0.033-2.031,1.585-3.702,3.617-3.734c2.032-0.033,3.703,1.585,3.735,3.616
			c0.033,2.032-1.585,3.703-3.617,3.735C28.125,304.165,26.454,302.547,26.421,300.515z M39.732,303.833
			c-1.887,0.03-3.543-0.717-3.588-3.475c-0.044-2.757,1.588-3.558,3.474-3.588l19.493-0.313c1.887-0.03,3.543,0.718,3.588,3.475
			s-1.588,3.558-3.474,3.588L39.732,303.833z"/>
		<path fill="#FFFFFF" d="M36.985,278.703c0.432-5.886,4.083-10.032,7.364-9.791c2.026,0.148,2.93,1.719,2.799,3.504
			c-0.244,3.329-4.305,1.818-4.677,6.884c-0.202,2.751,1.443,6.121,7.812,6.589c4.391,0.322,7.39-1.544,7.673-5.404
			c0.361-4.921-4.252-4.192-3.979-7.907c0.131-1.785,1.519-2.848,2.917-2.745c3.088,0.227,7.079,4.012,6.548,11.249
			c-0.637,8.685-6.293,12.394-13.675,11.852C41.66,292.338,36.352,287.34,36.985,278.703z"/>
		<path fill="#FFFFFF" d="M32.484,262.282c-2.284-0.424-3.217-2.023-2.829-4.117c0.388-2.094,1.833-3.253,4.117-2.829l9.563,1.772
			l0.018-0.095c-1.552-1.715-2.958-4.485-2.226-8.435c0.776-4.187,3.716-8.366,10.757-7.061l13.512,2.505
			c1.855,0.344,3.332,1.404,2.83,4.116c-0.503,2.712-2.262,3.174-4.117,2.83l-12.132-2.249c-2.807-0.521-5.061,0.488-5.617,3.486
			c-0.45,2.426,1.019,5.651,4.492,6.295l11.466,2.125c1.855,0.345,3.332,1.405,2.829,4.117c-0.503,2.712-2.262,3.174-4.117,2.829
			L32.484,262.282z"/>
		<path fill="#FFFFFF" d="M50.129,233.026l-0.332,1.163c-0.544,1.907-1.514,2.486-3.003,2.062s-2.007-1.429-1.463-3.336l0.332-1.163
			l-4.141-1.182c-2.233-0.637-3.011-2.318-2.427-4.365s2.132-3.064,4.365-2.427l4.141,1.181l0.584-2.047
			c0.571-2,1.481-2.897,3.109-2.434c1.628,0.465,1.928,1.708,1.357,3.708l-0.584,2.047l13.585,3.877
			c1.024,0.292,1.741-0.107,2.086-1.316l0.279-0.978c0.425-1.488,1.515-2.134,2.957-1.722c1.954,0.558,2.546,2.537,1.617,5.794
			c-1.407,4.932-4.039,6.395-8.04,5.253L50.129,233.026z"/>
		<path fill="#FFFFFF" d="M42.081,208.538c0.679-1.915,2.779-2.915,4.694-2.236c1.915,0.68,2.915,2.78,2.236,4.694
			c-0.679,1.915-2.779,2.916-4.694,2.236S41.402,210.453,42.081,208.538z M53.393,216.298c-1.778-0.631-3.07-1.91-2.148-4.509
			s2.731-2.778,4.509-2.147l18.374,6.519c1.778,0.63,3.069,1.91,2.147,4.509s-2.731,2.778-4.509,2.147L53.393,216.298z"/>
		<path fill="#FFFFFF" d="M57.917,203.302c-1.938-0.881-2.815-2.343-1.895-4.369s2.599-2.326,4.537-1.445l0.837,0.38l0.04-0.088
			c-1.558-2.887-2.171-5.982-0.509-9.639c1.762-3.877,5.622-7.225,12.142-4.262l12.511,5.686c1.718,0.78,2.896,2.166,1.754,4.677
			s-2.959,2.535-4.677,1.754l-11.233-5.104c-2.599-1.182-5.03-0.744-6.291,2.031c-1.021,2.246-0.372,5.73,2.844,7.191l10.617,4.825
			c1.718,0.78,2.896,2.166,1.754,4.677s-2.959,2.535-4.677,1.755L57.917,203.302z"/>
		<path fill="#FFFFFF" d="M100.687,165.696c7.286,4.407,7.935,10.906,4.129,17.199c-2.78,4.595-7.579,7.855-10.518,6.077
			c-1.49-0.901-1.865-2.712-1.064-4.036c1.527-2.525,4.933-1.145,6.986-4.539c2.229-3.684,1.267-6.301-3.494-9.181l-1.242-0.751
			l-0.05,0.083c0.922,2.027,0.819,5.188-0.633,7.59c-3.856,6.375-9.999,7.183-15.96,3.577c-7.824-4.732-8.854-11.35-5.774-16.441
			c1.778-2.939,4.546-4.431,7.458-4.196l0.05-0.083l-0.745-0.451c-1.863-1.126-2.281-2.68-1.204-4.46
			c1.127-1.862,2.646-2.131,4.509-1.004L100.687,165.696z M91.031,174.274c1.627-2.69,1.099-5.837-3.206-8.441
			c-4.388-2.654-7.335-2.175-9.038,0.641c-2.354,3.891-0.224,6.819,3.502,9.072C85.063,177.224,88.953,177.711,91.031,174.274z"/>
		<path fill="#FFFFFF" d="M90.959,131.482c-2.627-2.36-2.227-4.472-0.352-6.56l8.827-9.826c6.305-7.02,11.838-5.432,15.186-2.425
			c2.808,2.522,4.092,6.668,2.218,10.058l0.072,0.064c3.148-2.636,5.829-1.203,8.457,1.157c2.988,2.684,4.815,2.895,6.039,3.993
			c1.368,1.229,1.043,3.474-0.186,4.841c-2.91,3.24-6.268,0.679-7.312-0.259c-4.536-4.074-7.115-4.895-10.025-1.655l-5.238,5.831
			l7.595,6.822c1.764,1.585,1.917,3.804,0.3,5.604s-3.839,1.884-5.603,0.3L90.959,131.482z M104.325,132.822l5.303-5.903
			c2.004-2.231,3.433-4.98,0.518-7.6c-2.771-2.49-5.011-1.444-7.339,1.147l-5.464,6.083L104.325,132.822z"/>
		<path fill="#FFFFFF" d="M116.084,102.688c-1.533-1.809-1.384-4.027,0.462-5.592s4.059-1.347,5.592,0.462l7.445,8.784l0.639-18.553
			c0.076-1.333,0.203-2.455,1.273-3.362c1.44-1.22,3.63-1.554,4.944-0.004c0.782,0.923,0.834,1.957,0.755,2.912l-0.664,11.788
			l16.823,4.959c1.273,0.38,2.521,0.655,3.177,1.43c1.908,2.252,0.81,4.324-0.629,5.544c-1.218,1.032-2.132,1.3-4.04,0.696
			l-16.11-4.866l-0.507,6.138l5.099,6.017c1.533,1.809,1.384,4.027-0.461,5.591c-1.846,1.564-4.059,1.348-5.592-0.461
			L116.084,102.688z"/>
		<path fill="#FFFFFF" d="M178.112,72.361c7.129-2.131,10.845,0.718,12.841,4.258c3.089,5.479,1.263,11.895-7.082,16.599
			c-8.766,4.942-15.156,2.769-17.01-0.519c-0.95-1.686-0.393-3.555,1.292-4.505c3.751-2.115,5.87,3.91,12.866-0.033
			c3.583-2.02,4.447-5.117,3.306-7.14c-0.689-1.223-2.039-2.238-4.732-1.498l-8.914,2.414c-7.182,1.938-10.268-0.876-12.098-4.121
			c-3.801-6.743,1.011-12.788,6.869-16.09c5.395-3.041,13.469-3.595,15.75,0.451c0.974,1.729,0.069,3.571-1.617,4.521
			c-3.203,1.806-5.155-3.036-11.603,0.599c-3.203,1.806-4.142,4.278-2.954,6.386c1.188,2.107,4.097,1.355,6.573,0.626
			L178.112,72.361z"/>
		<path fill="#FFFFFF" d="M192.68,64.615l-1.109,0.484c-1.818,0.794-2.881,0.413-3.501-1.006s-0.176-2.457,1.642-3.251l1.109-0.484
			l-1.724-3.946c-0.929-2.129-0.127-3.799,1.824-4.65c1.951-0.853,3.721-0.306,4.65,1.823l1.723,3.946l1.951-0.852
			c1.907-0.833,3.178-0.702,3.856,0.851c0.678,1.552-0.09,2.573-1.997,3.406l-1.951,0.852l5.654,12.948
			c0.426,0.976,1.19,1.275,2.343,0.771l0.931-0.406c1.419-0.62,2.61-0.189,3.21,1.185c0.813,1.862-0.338,3.58-3.442,4.936
			c-4.7,2.052-7.503,0.953-9.168-2.86L192.68,64.615z"/>
		<path fill="#FFFFFF" d="M234.598,63.789c0.92,2.805,1.82,3.223,2.167,4.28c0.497,1.517-0.581,3.041-2.19,3.569
			c-2.896,0.949-4.465-0.573-5.235-2.611c-1.67,3.756-4.373,5.762-7.913,6.923c-3.816,1.251-8.445-0.133-9.833-4.363
			c-1.824-5.563,1.893-8.513,6.846-10.799l3.941-1.802c1.549-0.711,2.716-1.501,2.083-3.432c-0.633-1.932-2.881-2.11-5.134-1.372
			c-4.965,1.628-3.897,5.352-6.563,6.226c-1.701,0.559-3.243-0.261-3.695-1.64c-0.875-2.666,1.78-7.305,8.676-9.566
			c6.437-2.11,11.574-1.504,13.157,3.323L234.598,63.789z M226.303,61.163c-0.51,0.931-1.813,1.613-2.55,2.007l-2.316,1.167
			c-2.669,1.334-3.899,2.705-3.236,4.728c0.498,1.518,2.33,2.291,4.628,1.537c3.678-1.206,5.147-4.335,4.333-6.817L226.303,61.163z"
			/>
		<path fill="#FFFFFF" d="M263.959,61.738c0.429,2.134-0.338,3.473-2.472,3.901c-2.04,0.41-3.359-0.509-3.788-2.643l-0.219-1.091
			l-0.095,0.02c-0.547,3.169-3.059,5.154-6.426,5.831c-5.786,1.164-11.709-2.036-13.511-11c-1.335-6.639,0.783-13.528,8.086-14.997
			c3.083-0.62,5.711,0.184,7.535,2.136l0.095-0.019l-1.888-9.391c-0.458-2.276,0.679-3.738,2.766-4.158
			c2.086-0.42,3.7,0.489,4.158,2.766L263.959,61.738z M251.437,62.036c4.031-0.811,4.824-4.72,4.032-8.656
			c-0.715-3.557-2.882-7.463-7.094-6.567c-4.411,0.888-4.605,5.564-3.956,8.789C245.239,59.681,247.719,62.686,251.437,62.036z"/>
		<path fill="#FFFFFF" d="M275.665,37.25c5.349-0.475,10.934,1.167,11.22,4.396c0.146,1.639-0.835,3.183-2.666,3.345
			c-2.747,0.243-3.129-2.977-7.563-2.584c-2.458,0.219-3.988,1.034-3.855,2.527c0.146,1.639,1.77,1.884,3.981,2.173l2.999,0.414
			c4.081,0.561,9.001,1.824,9.437,6.739c0.509,5.734-4.798,8.876-10.099,9.347c-6.361,0.563-11.913-1.81-12.221-5.279
			c-0.137-1.542,0.606-3.016,2.582-3.191c3.036-0.269,3.709,4.042,8.914,3.581c2.505-0.223,3.998-1.472,3.869-2.917
			c-0.158-1.783-1.726-1.936-4.287-2.34l-4.233-0.645c-4.186-0.648-7.516-2.054-7.935-6.775
			C265.299,40.306,270.797,37.681,275.665,37.25z"/>
		<path fill="#FFFFFF" d="M316.962,59.665c-0.045,2.177-1.085,3.316-3.261,3.272c-2.08-0.043-3.169-1.227-3.124-3.403l0.022-1.112
			l-0.097-0.002c-1.223,2.975-4.106,4.367-7.54,4.297c-5.901-0.121-10.989-4.532-10.801-13.674
			c0.139-6.772,3.703-13.038,11.152-12.886c3.145,0.064,5.536,1.42,6.892,3.723l0.097,0.002l0.197-9.577
			c0.047-2.322,1.475-3.503,3.603-3.459c2.129,0.044,3.507,1.282,3.459,3.604L316.962,59.665z M304.672,57.235
			c4.111,0.084,5.734-3.561,5.817-7.575c0.074-3.627-1.193-7.912-5.499-7.952c-4.499-0.092-5.704,4.433-5.771,7.722
			C299.133,53.589,300.9,57.062,304.672,57.235z"/>
		<path fill="#FFFFFF" d="M323.95,40.743c0.197-1.876,1.139-3.431,3.881-3.143c2.742,0.287,3.341,2.004,3.144,3.88l-2.035,19.389
			c-0.197,1.877-1.139,3.432-3.881,3.144c-2.742-0.287-3.341-2.004-3.144-3.881L323.95,40.743z M328.847,27.93
			c2.021,0.212,3.484,2.02,3.272,4.04c-0.212,2.021-2.02,3.485-4.041,3.272c-2.021-0.212-3.484-2.02-3.272-4.04
			C325.019,29.182,326.825,27.718,328.847,27.93z"/>
		<path fill="#FFFFFF" d="M357.776,61.827c-0.557,2.898,0.028,3.7-0.182,4.794c-0.301,1.567-1.984,2.378-3.647,2.059
			c-2.993-0.575-3.626-2.667-3.311-4.824c-3.283,2.474-6.62,2.917-10.278,2.214c-3.944-0.757-7.32-4.214-6.48-8.585
			c1.104-5.75,5.785-6.525,11.226-6.121l4.32,0.337c1.699,0.129,3.104,0.005,3.486-1.991s-1.496-3.243-3.824-3.69
			c-5.132-0.985-6.004,2.788-8.76,2.259c-1.758-0.337-2.709-1.801-2.436-3.227c0.529-2.756,5.102-5.523,12.229-4.155
			c6.652,1.278,10.851,4.301,9.893,9.29L357.776,61.827z M351.797,55.506c-0.897,0.566-2.368,0.53-3.203,0.518l-2.592-0.104
			c-2.98-0.129-4.722,0.474-5.123,2.563c-0.301,1.568,0.926,3.134,3.301,3.591c3.802,0.729,6.604-1.294,7.097-3.86L351.797,55.506z"
			/>
		<path fill="#FFFFFF" d="M379.896,48.456c5.637,1.748,8.853,6.239,7.879,9.382c-0.603,1.94-2.335,2.467-4.045,1.937
			c-3.188-0.989-0.801-4.604-5.652-6.108c-2.634-0.817-6.288,0.025-8.179,6.124c-1.304,4.204-0.163,7.547,3.533,8.692
			c4.713,1.462,5.043-3.196,8.602-2.094c1.709,0.53,2.431,2.122,2.016,3.462c-0.917,2.957-5.505,5.991-12.436,3.842
			c-8.316-2.579-10.653-8.925-8.461-15.994C365.56,49.936,371.625,45.891,379.896,48.456z"/>
		<path fill="#FFFFFF" d="M405.521,58.087c7.805,3.407,9.649,10.549,6.667,17.378c-2.827,6.474-8.474,10.818-17.297,6.966
			c-8.824-3.854-9.475-10.948-6.647-17.423C391.226,58.18,397.718,54.679,405.521,58.087z M396.982,77.642
			c3.857,1.685,7.009-1.058,8.732-5.004c1.839-4.213,1.484-8.116-2.284-9.762c-3.77-1.646-6.873,0.747-8.713,4.959
			C392.994,71.781,393.125,75.957,396.982,77.642z"/>
		<path fill="#FFFFFF" d="M420.986,69.131c1.075-1.837,2.619-2.56,4.54-1.435c1.92,1.124,2.046,2.824,0.971,4.661l-0.465,0.793
			l0.084,0.049c3.031-1.252,6.173-1.543,9.639,0.486c3.674,2.15,6.605,6.334,2.988,12.513l-6.942,11.856
			c-0.954,1.629-2.453,2.657-4.832,1.264c-2.38-1.394-2.217-3.204-1.264-4.832l6.233-10.646c1.442-2.463,1.258-4.925-1.372-6.465
			c-2.129-1.247-5.66-0.96-7.445,2.088l-5.891,10.061c-0.953,1.629-2.452,2.657-4.832,1.264s-2.217-3.204-1.264-4.832
			L420.986,69.131z"/>
		<path fill="#FFFFFF" d="M456.484,111.455c-1.778,2.355-1.606,3.334-2.277,4.222c-0.961,1.274-2.829,1.26-4.181,0.239
			c-2.433-1.836-2.078-3.993-0.844-5.789c-4.038,0.772-7.228-0.302-10.201-2.546c-3.206-2.419-4.711-7.01-2.03-10.563
			c3.526-4.673,8.07-3.305,12.774-0.543l3.729,2.208c1.468,0.865,2.782,1.373,4.007-0.249c1.224-1.622,0.088-3.57-1.805-4.999
			c-4.171-3.147-6.618-0.146-8.858-1.836c-1.429-1.078-1.637-2.811-0.763-3.97c1.69-2.239,7.015-2.707,12.808,1.664
			c5.406,4.08,7.841,8.646,4.781,12.7L456.484,111.455z M453.906,103.145c-1.056,0.113-2.359-0.567-3.104-0.947l-2.28-1.235
			c-2.618-1.431-4.446-1.658-5.729,0.041c-0.962,1.274-0.552,3.221,1.38,4.678c3.089,2.331,6.497,1.751,8.071-0.334L453.906,103.145
			z"/>
		<path fill="#FFFFFF" d="M477.453,131.063c-2.04,2.133-1.984,3.124-2.754,3.928c-1.104,1.154-2.956,0.921-4.18-0.25
			c-2.202-2.106-1.599-4.208-0.163-5.848c-4.101,0.296-7.144-1.143-9.835-3.718c-2.901-2.776-3.861-7.512-0.784-10.728
			c4.047-4.23,8.4-2.342,12.75,0.95l3.446,2.627c1.357,1.031,2.604,1.688,4.008,0.22c1.405-1.468,0.504-3.536-1.209-5.175
			c-3.775-3.612-6.556-0.916-8.584-2.855c-1.293-1.238-1.298-2.983-0.294-4.031c1.939-2.028,7.281-1.872,12.525,3.145
			c4.894,4.683,6.779,9.5,3.268,13.171L477.453,131.063z M475.861,122.51c-1.062-0.011-2.277-0.839-2.972-1.303l-2.12-1.493
			c-2.434-1.726-4.223-2.165-5.694-0.627c-1.104,1.153-0.924,3.134,0.824,4.807c2.797,2.676,6.249,2.497,8.056,0.609L475.861,122.51
			z"/>
		<path fill="#FFFFFF" d="M492.661,127.474l-0.792-0.914c-1.3-1.499-1.253-2.628-0.083-3.643c1.17-1.014,2.293-0.899,3.593,0.6
			l0.792,0.914l3.254-2.82c1.755-1.521,3.588-1.254,4.982,0.355c1.395,1.608,1.399,3.461-0.355,4.982l-3.254,2.82l1.395,1.608
			c1.363,1.572,1.617,2.825,0.337,3.935c-1.279,1.109-2.483,0.68-3.847-0.892l-1.395-1.609l-10.675,9.255
			c-0.805,0.697-0.863,1.516-0.039,2.467l0.666,0.768c1.014,1.17,0.958,2.435-0.176,3.417c-1.535,1.331-3.517,0.744-5.735-1.814
			c-3.359-3.876-3.146-6.879-0.001-9.604L492.661,127.474z"/>
		<path fill="#FFFFFF" d="M521.422,148.058c3.015-1.839,4.923-0.849,6.384,1.547l5.038,8.262c4.51,7.394,5.419,16.133-6.229,23.236
			c-9.418,5.744-18.069,3.824-23.587-5.222l-4.963-8.138c-1.461-2.396-1.469-4.545,1.547-6.384L521.422,148.058z M505.23,167.227
			l3.477,5.7c3.301,5.411,9.191,4.198,13.776,1.402c5.865-3.577,8.058-7.975,5.034-12.932l-3.451-5.658L505.23,167.227z"/>
		<path fill="#FFFFFF" d="M525.718,193.958c-3.409,1.505-4.91,4.813-3.249,8.575c2.15,4.87,5.337,3.462,6.49,6.074
			c0.685,1.549-0.155,3.242-1.35,3.77c-3.896,1.721-8.467-3.72-10.187-7.615c-3.988-9.03,0.616-15.136,6.237-17.618
			c7.525-3.323,14.585-0.992,17.967,6.666c3.283,7.437-0.107,14.012-5.42,16.357c-2.213,0.978-3.081,0.567-4.039-1.602
			L525.718,193.958z M534.439,203.648c2.81-1.664,4.001-4.835,2.73-7.712c-1.427-3.231-4.278-4.3-7.734-3.62L534.439,203.648z"/>
		<path fill="#FFFFFF" d="M554.245,209.245c2.197-0.752,3.796,0.184,4.485,2.197c0.689,2.015-0.001,3.733-2.198,4.486l-27.466,9.402
			c-2.197,0.752-3.796-0.184-4.485-2.198c-0.689-2.014,0.001-3.733,2.198-4.485L554.245,209.245z"/>
		<path fill="#FFFFFF" d="M548.408,227.816l-0.422-1.54c-0.523-1.913,0.006-2.91,1.499-3.319c1.493-0.408,2.457,0.181,2.98,2.094
			l0.422,1.539l3.406-0.932c4.293-1.176,7.55,1.745,8.635,5.711c0.678,2.474,0.247,4.748-2.04,5.374
			c-1.26,0.345-2.601-0.342-2.933-1.555c-0.141-0.513-0.129-1.019-0.27-1.531c-0.268-0.98-1.062-1.314-1.995-1.059l-2.939,0.804
			l0.575,2.101c0.549,2.006,0.236,3.245-1.397,3.692c-1.633,0.447-2.533-0.46-3.082-2.467l-0.575-2.1l-17.125,4.688
			c-2.239,0.612-3.776-0.421-4.338-2.475c-0.563-2.053,0.234-3.726,2.474-4.338L548.408,227.816z"/>
		<path fill="#FFFFFF" d="M552.813,245.245l-0.235-1.187c-0.386-1.945,0.214-2.902,1.732-3.203s2.438,0.355,2.823,2.301l0.235,1.187
			l4.223-0.837c2.278-0.451,3.737,0.69,4.15,2.778c0.414,2.088-0.5,3.699-2.777,4.15l-4.224,0.837l0.413,2.088
			c0.404,2.04,0.004,3.254-1.657,3.583s-2.494-0.641-2.898-2.681l-0.413-2.088l-13.857,2.744c-1.044,0.207-1.5,0.89-1.256,2.123
			l0.197,0.997c0.301,1.519-0.375,2.589-1.846,2.88c-1.993,0.396-3.423-1.097-4.081-4.419c-0.996-5.03,0.678-7.531,4.759-8.34
			L552.813,245.245z"/>
		<path fill="#FFFFFF" d="M548.755,283.105c-3.723,0.159-6.326,2.692-6.149,6.802c0.229,5.317,3.709,5.168,3.831,8.02
			c0.073,1.692-1.325,2.963-2.631,3.019c-4.254,0.184-6.528-6.548-6.711-10.802c-0.423-9.861,6.088-13.87,12.227-14.134
			c8.219-0.353,13.942,4.391,14.302,12.753c0.349,8.121-5.204,13.009-11.005,13.258c-2.418,0.104-3.077-0.595-3.179-2.963
			L548.755,283.105z M553.347,295.306c3.222-0.525,5.486-3.044,5.352-6.187c-0.151-3.528-2.418-5.563-5.883-6.188L553.347,295.306z"
			/>
		<path fill="#FFFFFF" d="M545.334,309.637c-0.084,2.175-1.941,3.895-4.116,3.811c-2.176-0.083-3.896-1.94-3.812-4.116
			c0.084-2.175,1.941-3.895,4.116-3.812C543.698,305.604,545.418,307.461,545.334,309.637z"/>
		<path fill="#FFFFFF" d="M561.757,333.495c-1.069,8.449-7.4,12.232-14.793,11.297c-7.009-0.887-12.77-5.078-11.562-14.631
			c1.209-9.553,7.832-12.178,14.841-11.291C557.636,319.806,562.825,325.047,561.757,333.495z M540.587,330.817
			c-0.528,4.176,2.991,6.426,7.264,6.966c4.561,0.577,8.205-0.863,8.722-4.944c0.517-4.08-2.655-6.383-7.216-6.96
			C545.084,325.338,541.115,326.641,540.587,330.817z"/>
		<path fill="#FFFFFF" d="M539.897,352.505c-0.463,2.127-2.594,3.495-4.721,3.031c-2.127-0.463-3.495-2.593-3.032-4.721
			c0.464-2.127,2.594-3.495,4.722-3.031C538.993,348.247,540.361,350.378,539.897,352.505z"/>
	</g>
</g>
<g>
</g>
<g>
</g>
<g>
</g>
<g>
</g>
<g>
</g>
<g>
</g>
</svg>
