<?xml version="1.0" encoding="utf-8"?>
<!-- Generator: Adobe Illustrator 16.0.0, SVG Export Plug-In . SVG Version: 6.00 Build 0)  -->
<!DOCTYPE svg PUBLIC "-//W3C//DTD SVG 1.1//EN" "http://www.w3.org/Graphics/SVG/1.1/DTD/svg11.dtd">
<svg version="1.1" id="Layer_1" xmlns="http://www.w3.org/2000/svg" xmlns:xlink="http://www.w3.org/1999/xlink" x="0px" y="0px"
	 width="600px" height="599.996px" viewBox="0 0 600 599.996" enable-background="new 0 0 600 599.996" xml:space="preserve">
<g>
	<g>
		<path fill="#FF0000" d="M600,300.003C600,465.693,465.694,600,300.004,600C134.318,600,0,465.693,0,300.003
			C0,134.318,134.318,0,300.004,0C465.694,0,600,134.318,600,300.003z"/>
		<g>
			<path fill="#FFFFFF" d="M249.666,527.519c0.427-3.164,2.682-3.595,4.792-3.313l2.302,0.308c2.446,0.327,3.468,1.439,3.927,4.186
				l3.869,23.066l0.096,0.013l9.751-21.246c1.171-2.528,2.452-3.333,4.897-3.006l2.206,0.295c2.11,0.281,4.171,1.289,3.744,4.453
				l-3.785,28.047c-0.265,1.966-1.477,3.707-4.019,3.368c-2.542-0.34-3.249-2.338-2.983-4.304l2.886-21.383l-0.096-0.013
				l-10.43,21.937c-0.748,1.56-2.037,2.07-3.667,1.853c-1.631-0.218-2.739-1.05-3.046-2.75l-4.245-23.897l-0.096-0.013
				l-2.885,21.383c-0.266,1.966-1.477,3.707-4.019,3.367c-2.542-0.339-3.249-2.337-2.983-4.303L249.666,527.519z"/>
			<path fill="#FFFFFF" d="M315.651,557.096c1.838-0.048,3.216,0.788,3.273,2.964c0.058,2.177-1.273,3.083-3.498,3.141l-18.14,0.469
				c-2.806,0.073-4.016-1.783-4.061-3.477c-0.091-3.435,2.855-7.334,8.8-11.313c6.61-4.43,8.909-5.36,8.805-9.278
				c-0.082-3.145-2.547-4.823-5.208-4.755c-3.096,0.08-5.142,1.392-6.104,5.289c-0.437,1.802-1.041,2.737-2.976,2.787
				c-1.983,0.052-3.553-0.73-3.617-3.149c-0.156-5.9,5.529-10.55,12.64-10.733c7.739-0.2,12.469,4.76,12.587,9.21
				c0.17,6.434-2.714,9.024-7.764,12.06c-5.385,3.237-8.669,5.307-9.25,7.161L315.651,557.096z"/>
			<path fill="#FFFFFF" d="M326.506,531.473c0.025-1.669,0.997-3.244,2.574-3.496l14.332-2.284c1.815-0.289,3.291,0.357,3.638,2.507
				c0.346,2.149-0.854,3.222-2.573,3.496l-12.183,1.941l-0.137,7.369l0.111,0.081c1.481-1.755,3.851-2.867,6.286-3.256
				c5.973-0.951,11.908,1.825,13.092,9.181c1.238,7.689-3.627,12.775-11.271,13.993c-8.265,1.317-12.015-2.493-12.415-4.977
				c-0.308-1.911,0.855-3.517,2.909-3.844c2.915-0.465,3.66,4.168,8.725,3.361c3.631-0.579,5.631-3.984,5.131-7.088
				c-0.653-4.061-3.813-5.418-7.396-4.847c-3.774,0.602-4.544,3.124-6.934,3.505c-1.719,0.274-3.441-0.382-3.803-2.627
				c-0.154-0.955-0.182-1.734-0.17-2.569L326.506,531.473z"/>
		</g>
		<g>
			<path fill="#FFFFFF" d="M43.666,333.513c0.423-7.429,4.366-9.954,8.374-10.625c6.203-1.04,11.615,2.86,13.198,12.308
				c1.663,9.925-2.556,15.193-6.277,15.817c-1.909,0.32-3.477-0.84-3.796-2.748c-0.711-4.247,5.675-4.189,4.348-12.109
				c-0.68-4.056-3.298-5.923-5.588-5.539c-1.384,0.232-2.799,1.156-3.019,3.939l-0.763,9.203c-0.622,7.413-4.319,9.357-7.993,9.973
				c-7.634,1.279-11.68-5.303-12.792-11.935c-1.023-6.107,1.205-13.888,5.786-14.655c1.956-0.328,3.381,1.15,3.701,3.059
				c0.608,3.626-4.609,3.813-3.386,11.114c0.608,3.626,2.614,5.351,4.999,4.95c2.386-0.399,2.669-3.391,2.827-5.968L43.666,333.513z
				"/>
			<path fill="#FFFFFF" d="M41.342,317.167l0.079,1.208c0.129,1.979-0.59,2.851-2.135,2.951s-2.371-0.67-2.5-2.649l-0.079-1.207
				l-4.296,0.28c-2.317,0.15-3.616-1.172-3.754-3.296c-0.139-2.124,0.978-3.604,3.295-3.754l4.297-0.279l-0.139-2.125
				c-0.135-2.076,0.42-3.227,2.11-3.337c1.69-0.11,2.39,0.959,2.525,3.035l0.139,2.125l14.097-0.918
				c1.062-0.069,1.604-0.687,1.522-1.941l-0.066-1.015c-0.101-1.545,0.708-2.519,2.206-2.616c2.027-0.132,3.251,1.534,3.471,4.914
				c0.333,5.117-1.653,7.38-5.805,7.65L41.342,317.167z"/>
			<path fill="#FFFFFF" d="M25.519,296.429c-0.033-2.031,1.585-3.702,3.617-3.734c2.032-0.033,3.703,1.585,3.735,3.616
				c0.033,2.032-1.585,3.703-3.617,3.735C27.223,300.079,25.551,298.461,25.519,296.429z M38.829,299.747
				c-1.887,0.03-3.543-0.717-3.588-3.475c-0.044-2.757,1.588-3.558,3.474-3.588l19.493-0.313c1.887-0.03,3.543,0.718,3.588,3.475
				s-1.587,3.558-3.474,3.588L38.829,299.747z"/>
			<path fill="#FFFFFF" d="M36.077,274.594c0.43-5.887,4.08-10.034,7.361-9.794c2.026,0.147,2.93,1.718,2.8,3.503
				c-0.243,3.329-4.304,1.819-4.674,6.886c-0.201,2.75,1.444,6.12,7.813,6.586c4.39,0.32,7.389-1.547,7.67-5.406
				c0.36-4.921-4.253-4.191-3.982-7.906c0.13-1.785,1.518-2.848,2.917-2.746c3.088,0.226,7.08,4.01,6.551,11.247
				c-0.634,8.685-6.29,12.395-13.671,11.855C40.756,288.226,35.446,283.23,36.077,274.594z"/>
			<path fill="#FFFFFF" d="M31.573,258.175c-2.284-0.423-3.218-2.022-2.831-4.116c0.388-2.093,1.833-3.253,4.116-2.83l9.563,1.77
				l0.018-0.095c-1.553-1.715-2.959-4.484-2.229-8.434c0.775-4.187,3.713-8.366,10.755-7.063l13.512,2.501
				c1.855,0.343,3.332,1.403,2.831,4.115c-0.502,2.712-2.26,3.174-4.116,2.831l-12.132-2.245c-2.807-0.52-5.061,0.49-5.615,3.487
				c-0.449,2.427,1.021,5.651,4.494,6.294l11.466,2.121c1.855,0.344,3.333,1.404,2.831,4.116s-2.26,3.174-4.116,2.83L31.573,258.175
				z"/>
			<path fill="#FFFFFF" d="M49.213,228.919l-0.332,1.163c-0.543,1.907-1.514,2.486-3.002,2.062
				c-1.489-0.424-2.007-1.428-1.464-3.335l0.332-1.163l-4.141-1.18c-2.233-0.637-3.012-2.317-2.428-4.364s2.131-3.066,4.364-2.43
				l4.141,1.182l0.583-2.049c0.57-2,1.48-2.897,3.108-2.434c1.628,0.464,1.928,1.706,1.358,3.708l-0.583,2.047l13.585,3.872
				c1.023,0.292,1.741-0.107,2.085-1.317l0.279-0.977c0.424-1.489,1.514-2.134,2.956-1.724c1.954,0.558,2.547,2.537,1.619,5.794
				c-1.405,4.932-4.036,6.396-8.037,5.255L49.213,228.919z"/>
			<path fill="#FFFFFF" d="M41.15,204.432c0.679-1.915,2.779-2.917,4.694-2.238s2.917,2.779,2.238,4.694
				c-0.679,1.916-2.779,2.917-4.694,2.238S40.472,206.348,41.15,204.432z M52.467,212.188c-1.779-0.63-3.071-1.909-2.15-4.509
				c0.921-2.6,2.73-2.78,4.509-2.149l18.38,6.512c1.778,0.63,3.071,1.909,2.149,4.509c-0.921,2.6-2.73,2.78-4.509,2.15
				L52.467,212.188z"/>
			<path fill="#FFFFFF" d="M57.005,199.166c-1.938-0.881-2.815-2.343-1.895-4.369s2.599-2.326,4.537-1.445l0.837,0.38l0.04-0.088
				c-1.558-2.887-2.171-5.982-0.509-9.639c1.762-3.877,5.622-7.225,12.142-4.262l12.511,5.686c1.718,0.78,2.896,2.166,1.754,4.677
				s-2.959,2.535-4.677,1.754l-11.233-5.104c-2.599-1.182-5.03-0.744-6.291,2.031c-1.021,2.246-0.372,5.73,2.844,7.191l10.617,4.825
				c1.718,0.78,2.896,2.166,1.754,4.677s-2.959,2.535-4.677,1.755L57.005,199.166z"/>
			<path fill="#FFFFFF" d="M99.771,161.562c7.286,4.407,7.935,10.906,4.129,17.199c-2.78,4.595-7.579,7.855-10.518,6.077
				c-1.49-0.901-1.865-2.712-1.064-4.036c1.527-2.525,4.933-1.145,6.986-4.539c2.229-3.684,1.267-6.301-3.494-9.181l-1.242-0.751
				l-0.05,0.083c0.922,2.027,0.819,5.188-0.633,7.59c-3.856,6.375-9.999,7.183-15.96,3.577c-7.824-4.732-8.854-11.35-5.774-16.441
				c1.778-2.939,4.546-4.431,7.458-4.196l0.05-0.083l-0.745-0.451c-1.863-1.126-2.281-2.68-1.204-4.46
				c1.127-1.862,2.646-2.131,4.509-1.004L99.771,161.562z M90.116,170.14c1.627-2.69,1.099-5.837-3.206-8.441
				c-4.388-2.654-7.335-2.175-9.038,0.641c-2.354,3.891-0.224,6.819,3.502,9.072C84.148,173.089,88.038,173.576,90.116,170.14z"/>
			<path fill="#FFFFFF" d="M90.04,127.35c-2.627-2.36-2.227-4.472-0.352-6.561l8.827-9.826c6.305-7.02,11.838-5.432,15.186-2.425
				c2.808,2.522,4.092,6.668,2.218,10.058l0.072,0.064c3.148-2.636,5.829-1.203,8.457,1.157c2.988,2.685,4.815,2.896,6.039,3.994
				c1.368,1.229,1.043,3.474-0.186,4.841c-2.91,3.24-6.268,0.679-7.312-0.259c-4.536-4.074-7.115-4.895-10.025-1.655l-5.238,5.831
				l7.595,6.822c1.764,1.585,1.917,3.804,0.3,5.604s-3.839,1.884-5.603,0.3L90.04,127.35z M103.405,128.689l5.303-5.903
				c2.004-2.232,3.434-4.981,0.518-7.601c-2.771-2.49-5.011-1.444-7.339,1.147l-5.464,6.084L103.405,128.689z"/>
			<path fill="#FFFFFF" d="M115.162,98.553c-1.533-1.809-1.384-4.027,0.462-5.592s4.059-1.347,5.592,0.462l7.445,8.784l0.639-18.553
				c0.076-1.333,0.203-2.455,1.273-3.362c1.44-1.22,3.63-1.554,4.944-0.004c0.782,0.923,0.834,1.957,0.755,2.912l-0.664,11.788
				l16.823,4.959c1.273,0.38,2.521,0.655,3.177,1.43c1.908,2.252,0.81,4.324-0.629,5.544c-1.218,1.032-2.132,1.3-4.04,0.696
				l-16.11-4.866l-0.507,6.138l5.099,6.017c1.533,1.809,1.384,4.027-0.461,5.591c-1.846,1.564-4.059,1.348-5.592-0.461
				L115.162,98.553z"/>
			<path fill="#FFFFFF" d="M177.17,68.239c7.129-2.131,10.845,0.718,12.841,4.258c3.089,5.479,1.263,11.895-7.082,16.599
				c-8.766,4.942-15.156,2.769-17.01-0.519c-0.95-1.686-0.393-3.555,1.292-4.505c3.751-2.115,5.87,3.91,12.866-0.033
				c3.583-2.02,4.447-5.117,3.306-7.14c-0.689-1.223-2.039-2.238-4.732-1.498l-8.914,2.414c-7.182,1.938-10.268-0.876-12.098-4.121
				c-3.801-6.743,1.011-12.788,6.869-16.09c5.395-3.041,13.469-3.595,15.75,0.451c0.974,1.729,0.069,3.571-1.617,4.521
				c-3.203,1.806-5.155-3.036-11.603,0.599c-3.203,1.806-4.142,4.278-2.954,6.386c1.188,2.107,4.097,1.355,6.573,0.626
				L177.17,68.239z"/>
			<path fill="#FFFFFF" d="M191.755,60.479l-1.109,0.484c-1.818,0.794-2.881,0.413-3.501-1.006s-0.176-2.457,1.642-3.251
				l1.109-0.484l-1.724-3.946c-0.929-2.129-0.127-3.799,1.824-4.65c1.951-0.853,3.721-0.306,4.65,1.823l1.723,3.946l1.951-0.852
				c1.907-0.833,3.178-0.702,3.856,0.851c0.678,1.552-0.09,2.573-1.997,3.406l-1.951,0.852l5.654,12.948
				c0.426,0.976,1.19,1.275,2.343,0.771l0.931-0.406c1.419-0.62,2.61-0.189,3.21,1.185c0.813,1.862-0.338,3.58-3.442,4.936
				c-4.7,2.052-7.503,0.953-9.168-2.86L191.755,60.479z"/>
			<path fill="#FFFFFF" d="M233.672,59.651c0.92,2.805,1.82,3.223,2.167,4.28c0.497,1.517-0.581,3.041-2.19,3.569
				c-2.896,0.949-4.465-0.573-5.235-2.611c-1.67,3.756-4.373,5.762-7.913,6.923c-3.816,1.251-8.445-0.133-9.833-4.363
				c-1.824-5.563,1.893-8.513,6.846-10.799l3.941-1.802c1.549-0.711,2.716-1.501,2.083-3.432c-0.633-1.932-2.881-2.11-5.134-1.372
				c-4.965,1.628-3.897,5.352-6.563,6.226c-1.701,0.559-3.243-0.261-3.695-1.64c-0.875-2.666,1.78-7.305,8.676-9.566
				c6.437-2.11,11.574-1.504,13.157,3.323L233.672,59.651z M225.377,57.025c-0.51,0.931-1.813,1.613-2.55,2.007l-2.316,1.167
				c-2.669,1.334-3.899,2.705-3.236,4.728c0.498,1.518,2.33,2.291,4.628,1.537c3.678-1.206,5.147-4.335,4.333-6.817L225.377,57.025z
				"/>
			<path fill="#FFFFFF" d="M263.008,57.597c0.43,2.135-0.337,3.474-2.471,3.903c-2.039,0.41-3.359-0.508-3.789-2.642l-0.22-1.091
				l-0.095,0.019c-0.546,3.17-3.058,5.156-6.425,5.834c-5.786,1.166-11.71-2.033-13.516-10.996
				c-1.337-6.64,0.779-13.53,8.082-15.001c3.083-0.621,5.712,0.182,7.536,2.134l0.095-0.02l-1.891-9.39
				c-0.458-2.276,0.678-3.739,2.765-4.159c2.086-0.421,3.701,0.488,4.159,2.765L263.008,57.597z M250.484,57.898
				c4.031-0.812,4.823-4.722,4.03-8.657c-0.717-3.558-2.885-7.463-7.096-6.565c-4.411,0.888-4.604,5.565-3.954,8.791
				C244.286,55.545,246.767,58.549,250.484,57.898z"/>
			<path fill="#FFFFFF" d="M274.736,33.106c5.349-0.474,10.934,1.168,11.22,4.396c0.146,1.639-0.835,3.183-2.666,3.345
				c-2.747,0.243-3.129-2.977-7.563-2.583c-2.458,0.218-3.988,1.033-3.855,2.526c0.146,1.639,1.77,1.884,3.981,2.173l2.999,0.414
				c4.081,0.561,9.001,1.824,9.437,6.739c0.509,5.734-4.798,8.876-10.099,9.347c-6.361,0.563-11.913-1.81-12.221-5.279
				c-0.137-1.542,0.606-3.016,2.582-3.191c3.036-0.269,3.709,4.042,8.914,3.581c2.505-0.223,3.998-1.472,3.869-2.917
				c-0.158-1.783-1.726-1.936-4.287-2.34l-4.234-0.645c-4.186-0.648-7.516-2.054-7.935-6.775
				C264.371,36.163,269.869,33.538,274.736,33.106z"/>
			<path fill="#FFFFFF" d="M316.006,55.513c-0.045,2.177-1.084,3.317-3.261,3.273c-2.079-0.042-3.169-1.226-3.125-3.402l0.022-1.112
				l-0.097-0.002c-1.222,2.976-4.104,4.369-7.538,4.3c-5.902-0.119-10.991-4.528-10.806-13.671
				c0.137-6.771,3.699-13.039,11.148-12.889c3.145,0.063,5.537,1.419,6.893,3.721l0.098,0.002l0.193-9.578
				c0.047-2.322,1.474-3.503,3.602-3.46c2.129,0.043,3.508,1.28,3.461,3.603L316.006,55.513z M303.715,53.087
				c4.111,0.083,5.733-3.562,5.814-7.576c0.073-3.628-1.195-7.912-5.501-7.95c-4.499-0.091-5.703,4.434-5.77,7.723
				C298.175,49.443,299.944,52.914,303.715,53.087z"/>
			<path fill="#FFFFFF" d="M323.008,36.596c0.197-1.876,1.138-3.432,3.88-3.145c2.743,0.287,3.341,2.004,3.145,3.88l-2.029,19.389
				c-0.196,1.877-1.138,3.432-3.88,3.145s-3.34-2.003-3.145-3.88L323.008,36.596z M327.901,23.78c2.02,0.212,3.484,2.02,3.273,4.04
				s-2.019,3.485-4.039,3.273c-2.021-0.211-3.485-2.019-3.273-4.039C324.073,25.034,325.879,23.568,327.901,23.78z"/>
			<path fill="#FFFFFF" d="M356.813,57.675c-0.557,2.898,0.027,3.701-0.182,4.794c-0.302,1.567-1.984,2.378-3.647,2.059
				c-2.993-0.575-3.626-2.667-3.312-4.824c-3.283,2.474-6.619,2.917-10.278,2.214c-3.944-0.757-7.319-4.214-6.48-8.585
				c1.104-5.75,5.786-6.525,11.227-6.121l4.319,0.337c1.7,0.129,3.104,0.005,3.486-1.991c0.384-1.996-1.495-3.243-3.823-3.69
				c-5.132-0.985-6.005,2.788-8.761,2.259c-1.758-0.337-2.709-1.801-2.435-3.227c0.529-2.756,5.101-5.523,12.228-4.155
				c6.652,1.278,10.852,4.301,9.893,9.29L356.813,57.675z M350.833,51.354c-0.896,0.566-2.367,0.53-3.203,0.518l-2.591-0.103
				c-2.981-0.13-4.722,0.473-5.124,2.563c-0.301,1.568,0.926,3.134,3.302,3.591c3.802,0.729,6.604-1.294,7.097-3.86L350.833,51.354z
				"/>
			<path fill="#FFFFFF" d="M378.971,44.308c5.637,1.748,8.854,6.239,7.879,9.382c-0.602,1.94-2.335,2.467-4.045,1.937
				c-3.188-0.989-0.801-4.604-5.651-6.108c-2.634-0.817-6.288,0.025-8.18,6.124c-1.304,4.204-0.162,7.547,3.534,8.692
				c4.713,1.462,5.043-3.196,8.601-2.094c1.71,0.53,2.432,2.122,2.017,3.462c-0.918,2.957-5.505,5.991-12.436,3.842
				c-8.316-2.579-10.654-8.925-8.461-15.994C364.635,45.787,370.702,41.742,378.971,44.308z"/>
			<path fill="#FFFFFF" d="M404.572,53.931c7.804,3.407,9.649,10.549,6.667,17.378c-2.827,6.474-8.473,10.818-17.297,6.966
				c-8.824-3.854-9.475-10.948-6.648-17.423C390.276,54.023,396.768,50.522,404.572,53.931z M396.033,73.485
				c3.858,1.685,7.009-1.058,8.731-5.004c1.84-4.213,1.486-8.116-2.283-9.762c-3.77-1.646-6.873,0.747-8.713,4.959
				C392.044,67.625,392.174,71.801,396.033,73.485z"/>
			<path fill="#FFFFFF" d="M420.031,64.971c1.075-1.837,2.62-2.56,4.54-1.435c1.92,1.124,2.047,2.824,0.971,4.661l-0.465,0.793
				l0.084,0.049c3.031-1.252,6.174-1.543,9.639,0.486c3.674,2.15,6.605,6.334,2.988,12.513l-6.943,11.856
				c-0.953,1.629-2.451,2.657-4.832,1.264c-2.379-1.394-2.216-3.204-1.263-4.832l6.233-10.646c1.442-2.463,1.258-4.925-1.371-6.465
				c-2.13-1.247-5.662-0.96-7.445,2.088l-5.892,10.061c-0.954,1.629-2.452,2.657-4.832,1.264s-2.217-3.204-1.263-4.832
				L420.031,64.971z"/>
			<path fill="#FFFFFF" d="M455.526,107.291c-1.777,2.355-1.606,3.334-2.277,4.222c-0.961,1.274-2.829,1.26-4.181,0.239
				c-2.433-1.836-2.078-3.993-0.844-5.789c-4.038,0.772-7.228-0.302-10.202-2.546c-3.205-2.419-4.711-7.01-2.029-10.563
				c3.527-4.673,8.07-3.305,12.775-0.543l3.729,2.208c1.468,0.865,2.782,1.373,4.006-0.249c1.225-1.622,0.088-3.57-1.804-4.999
				c-4.171-3.147-6.618-0.146-8.858-1.836c-1.429-1.078-1.637-2.811-0.762-3.969c1.689-2.24,7.014-2.709,12.807,1.663
				c5.406,4.08,7.841,8.646,4.781,12.7L455.526,107.291z M452.948,98.98c-1.055,0.113-2.359-0.567-3.104-0.947l-2.28-1.235
				c-2.618-1.431-4.446-1.658-5.729,0.041c-0.962,1.274-0.552,3.221,1.38,4.678c3.09,2.331,6.497,1.751,8.07-0.334L452.948,98.98z"
				/>
			<path fill="#FFFFFF" d="M476.508,126.912c-2.04,2.133-1.984,3.124-2.753,3.928c-1.104,1.154-2.957,0.921-4.181-0.25
				c-2.202-2.106-1.598-4.208-0.163-5.848c-4.1,0.296-7.143-1.143-9.835-3.719c-2.9-2.776-3.861-7.512-0.784-10.728
				c4.048-4.23,8.4-2.342,12.751,0.95l3.445,2.627c1.357,1.031,2.604,1.688,4.009,0.22s0.503-3.536-1.21-5.175
				c-3.775-3.612-6.556-0.916-8.583-2.855c-1.294-1.238-1.298-2.983-0.294-4.031c1.939-2.028,7.281-1.872,12.525,3.145
				c4.894,4.683,6.779,9.5,3.268,13.171L476.508,126.912z M474.917,118.357c-1.061-0.011-2.277-0.839-2.971-1.303l-2.121-1.493
				c-2.434-1.726-4.223-2.165-5.693-0.627c-1.104,1.153-0.924,3.134,0.824,4.807c2.797,2.677,6.248,2.497,8.055,0.609
				L474.917,118.357z"/>
			<path fill="#FFFFFF" d="M491.729,123.342l-0.793-0.914c-1.299-1.5-1.252-2.628-0.082-3.642s2.293-0.899,3.592,0.6l0.793,0.914
				l3.254-2.819c1.754-1.521,3.586-1.252,4.98,0.356c1.395,1.609,1.398,3.461-0.355,4.982l-3.254,2.819l1.393,1.608
				c1.363,1.572,1.615,2.825,0.336,3.934s-2.482,0.68-3.846-0.893l-1.394-1.608l-10.675,9.25c-0.805,0.696-0.863,1.516-0.04,2.466
				l0.665,0.769c1.014,1.17,0.958,2.435-0.176,3.416c-1.535,1.331-3.517,0.743-5.734-1.816c-3.357-3.875-3.143-6.878,0.002-9.602
				L491.729,123.342z"/>
			<path fill="#FFFFFF" d="M520.481,143.918c3.016-1.839,4.924-0.849,6.385,1.547l5.039,8.262c4.508,7.394,5.418,16.133-6.23,23.236
				c-9.418,5.744-18.068,3.824-23.586-5.222l-4.963-8.138c-1.461-2.396-1.469-4.545,1.547-6.384L520.481,143.918z M504.292,163.087
				l3.477,5.7c3.299,5.411,9.189,4.198,13.775,1.402c5.865-3.577,8.057-7.975,5.033-12.932l-3.451-5.658L504.292,163.087z"/>
			<path fill="#FFFFFF" d="M524.772,189.823c-3.408,1.504-4.912,4.811-3.252,8.573c2.148,4.869,5.336,3.463,6.488,6.074
				c0.684,1.55-0.156,3.242-1.352,3.77c-3.895,1.719-8.463-3.722-10.182-7.617c-3.984-9.03,0.619-15.134,6.242-17.614
				c7.523-3.32,14.582-0.987,17.961,6.67c3.281,7.437-0.111,14.011-5.424,16.354c-2.213,0.977-3.08,0.566-4.037-1.603
				L524.772,189.823z M533.489,199.515c2.811-1.663,4.002-4.833,2.732-7.711c-1.426-3.231-4.275-4.3-7.732-3.621L533.489,199.515z"
				/>
			<path fill="#FFFFFF" d="M553.295,205.115c2.197-0.751,3.795,0.185,4.484,2.199c0.689,2.014-0.002,3.732-2.199,4.484
				l-27.465,9.395c-2.197,0.751-3.797-0.185-4.484-2.2c-0.689-2.014,0.002-3.733,2.199-4.484L553.295,205.115z"/>
			<path fill="#FFFFFF" d="M547.458,223.684l-0.42-1.54c-0.523-1.913,0.006-2.912,1.5-3.32c1.492-0.408,2.455,0.182,2.979,2.096
				l0.422,1.54l3.406-0.932c4.293-1.174,7.549,1.748,8.633,5.714c0.676,2.473,0.244,4.747-2.041,5.372
				c-1.26,0.345-2.602-0.342-2.934-1.555c-0.141-0.514-0.127-1.019-0.268-1.531c-0.268-0.98-1.063-1.315-1.996-1.06l-2.939,0.804
				l0.574,2.1c0.549,2.006,0.236,3.245-1.396,3.691c-1.635,0.447-2.533-0.461-3.082-2.467l-0.574-2.1l-17.125,4.682
				c-2.24,0.612-3.775-0.423-4.338-2.476c-0.561-2.053,0.236-3.725,2.475-4.338L547.458,223.684z"/>
			<path fill="#FFFFFF" d="M551.862,241.104l-0.234-1.187c-0.387-1.945,0.213-2.902,1.732-3.203
				c1.518-0.301,2.438,0.355,2.822,2.301l0.236,1.187l4.223-0.836c2.277-0.451,3.736,0.689,4.15,2.777s-0.5,3.699-2.777,4.15
				l-4.225,0.837l0.414,2.088c0.404,2.04,0.004,3.254-1.658,3.583c-1.66,0.329-2.494-0.641-2.898-2.681l-0.412-2.088l-13.857,2.744
				c-1.045,0.207-1.5,0.89-1.256,2.123l0.197,0.997c0.301,1.519-0.375,2.589-1.846,2.881c-1.994,0.395-3.424-1.098-4.082-4.42
				c-0.996-5.03,0.678-7.531,4.76-8.34L551.862,241.104z"/>
			<path fill="#FFFFFF" d="M547.799,278.961c-3.723,0.159-6.326,2.692-6.148,6.802c0.229,5.317,3.709,5.168,3.83,8.02
				c0.074,1.692-1.324,2.963-2.631,3.02c-4.254,0.182-6.527-6.549-6.711-10.803c-0.422-9.861,6.088-13.87,12.227-14.133
				c8.219-0.354,13.943,4.389,14.303,12.752c0.348,8.121-5.205,13.009-11.006,13.258c-2.418,0.104-3.076-0.595-3.178-2.963
				L547.799,278.961z M552.391,291.161c3.223-0.525,5.486-3.044,5.352-6.187c-0.15-3.528-2.418-5.563-5.883-6.188L552.391,291.161z"
				/>
			<path fill="#FFFFFF" d="M544.372,305.517c-0.084,2.176-1.941,3.895-4.117,3.811c-2.176-0.085-3.895-1.942-3.811-4.118
				c0.086-2.175,1.943-3.895,4.119-3.81C542.739,301.483,544.458,303.342,544.372,305.517z"/>
			<path fill="#FFFFFF" d="M560.792,329.355c-1.07,8.449-7.404,12.23-14.797,11.293c-7.008-0.889-12.768-5.082-11.557-14.635
				c1.211-9.554,7.836-12.177,14.844-11.288C556.676,315.663,561.864,320.907,560.792,329.355z M539.622,326.671
				c-0.529,4.177,2.99,6.428,7.262,6.97c4.561,0.578,8.207-0.862,8.725-4.942s-2.654-6.385-7.215-6.963
				C544.122,321.193,540.153,322.494,539.622,326.671z"/>
			<path fill="#FFFFFF" d="M538.936,348.355c-0.463,2.127-2.594,3.495-4.721,3.031c-2.127-0.463-3.494-2.593-3.031-4.721
				c0.463-2.127,2.594-3.495,4.721-3.031C538.032,344.098,539.401,346.229,538.936,348.355z"/>
		</g>
	</g>
	<g>
		<path fill-rule="evenodd" clip-rule="evenodd" d="M341.499,90.396c2.59,2.657,6.17,4.211,10.484,4.399
			c6.062,0.251,12.152,0.413,18.182,0.909c22.801,1.872,38.928,14.313,50.389,33.079c6.558,10.775,5.88,22.292,2.009,34.343
			c-4.641,14.62-13.322,26.048-24.245,36.212c-2.354,2.171-2.809,3.948-1.037,6.6c4.725,7.088,9.154,14.366,14.065,21.274
			c3.948,5.519,10.144,8.174,16.208,10.477c6.494,2.463,13.139,4.465,19.66,6.65c0.86,0.286,1.746,0.499,2.418,0.948
			c26.944,18.604,45.258,46.757,32.627,83.84c-5.683,16.702-13.807,32.063-26.025,44.991c-8.348,8.865-18.494,15.507-28.715,21.944
			c-4.394,2.746-9.137,4.813-13.701,7.294c-0.886,0.454-1.916,1.246-2.166,2.084c-3.59,12.692-6.693,25.543-10.676,38.1
			c-2.068,6.508-5.611,12.562-8.674,18.763c-1.662,3.423-3.289,7.004-5.651,10.005c-3.306,4.214-6.704,8.746-11.028,11.826
			c-18.059,12.863-37.692,22.759-59.396,28.073c-2.611,0.6-5.318,1.179-7.99,1.211c-18.334,0.52-36.418-1.355-53.768-7.471
			c-2.686-0.972-5.315-3.381-6.938-5.847c-3.654-5.552-6.59-11.563-10.04-17.287c-0.818-1.373-2.294-2.383-3.605-3.39
			c-2.676-2.07-5.338-4.134-8.15-6.042c-3.603-2.368-7.266-4.63-10.982-6.821c-18.019-10.704-36.225-21.302-49.685-37.798
			c-5.707-7.027-9.877-15.349-14.518-23.192c-6.458-10.973-12.454-22.229-19.156-33.022c-6.333-10.197-12.222-20.43-13.04-32.749
			c-0.396-6.074-0.301-12.137,3.151-17.591c0.071-0.067,0.136-0.213,0.147-0.325c2.356-10.518,9.715-18.491,14.278-27.878
			c3.469-7.138,5.283-14.201,4.766-22.442c-0.954-14.939,1.55-29.678,7.681-43.471c4.802-10.785,13.51-17.563,24.882-20.606
			c2.507-0.652,2.972-1.548,2.944-3.986c-0.269-12.769,1.161-25.31,8.506-36.245c5.869-8.714,13.207-15.042,24.517-16.093
			c4.707-0.443,9.393-3.106,13.625-5.59c11.59-6.774,22.228-14.653,29.977-26.087c7.072-10.406,15.688-19.513,26.748-25.889
			c18.419-10.589,37.638-10.878,57.32-4.107C338.25,89.947,339.77,90.065,341.499,90.396z M276.685,170.867
			c0.115-0.461,0.226-0.954,0.316-1.412c3.749,0.765,7.584,1.19,11.128,2.439c4.282,1.497,8.192,4.875,12.472,5.354
			c4.694,0.531,6.909,3.293,9.688,5.959c1.546,1.557,2.684,3.579,4.309,5.076c9.18,8.466,19.113,15.367,32.369,15.184
			c3.355-0.041,6.733,0.653,9.939,0.178c16.443-2.434,29.529-12.104,43.182-20.443c1.474-0.886,2.52-2.362,3.688-3.629
			c7.041-7.687,11.035-17.148,15.06-26.491c1.188-2.806,1.209-6.738,0.308-9.721c-6.509-21.787-22.304-33.93-43.272-40.187
			c-12.007-3.559-24.955-2.817-36.643-7.602c-8.363-3.396-16.67-5.279-25.682-5.188c-17.596,0.157-31.737,7.342-43.359,20.11
			c-6.049,6.635-11.073,14.133-16.677,21.093c-11.449,14.26-27.262,19.758-43.334,24.825c-8.277,2.637-14.881,6.175-19.723,13.354
			c-3.792,5.61-4.779,12.06-6.494,18.308c-2.142,7.825-1.561,15.385,1.993,22.738c1.252,2.545,2.645,5.235,2.912,7.976
			c0.483,4.549,0.926,9.374-0.15,13.732c-1.138,4.662-5.213,7.678-10.294,7.663c-4.338-0.03-8.186-1.719-10.268-5.978
			c-1.323-2.675-3.325-4.742-6.418-3.833c-3.251,1.005-7.23,0.603-8.708,5.396c-3.25,10.43-5.612,21.031-5.836,31.931
			c-0.133,5.637,0.233,11.247,1.355,16.979c2.046,10.51,1.005,17.98-9.402,25.274c-3.145,2.215-6.333,4.368-9.375,6.647
			c-0.954,0.712-1.853,1.73-2.269,2.805c-5.664,15.312-5.028,29.725,5.218,43.35c8.804,11.729,17.279,23.775,22.377,37.819
			c5.25,14.467,14.239,26.42,26.723,35.335c11.075,7.917,22.667,15.03,33.962,22.632c3.248,2.173,6.449,4.55,9.262,7.29
			c5.506,5.318,11.496,9.087,19.479,9.205c1.624,0.047,3.641,1.267,4.779,2.519c3.219,3.668,6.497,3.514,10.552,1.441
			c5.044-2.602,9.91-1.631,13.96,2.288c2.418,2.282,4.282,5.108,6.643,7.516c1.033,1.092,2.51,2.149,3.92,2.323
			c7.735,1.008,14.013-1.766,19.149-7.557c1.766-1.919,3.98-3.398,5.84-5.241c2.354-2.288,4.969-2.584,7.744-1.146
			c3.02,1.512,4.174,4.196,3.821,7.418c-0.419,2.962,1.198,3.96,3.562,3.597c6.23-0.865,12.543-1.816,15.238-8.903
			c0.62-1.535,2.12-2.755,2.919-4.282c2.021-3.735,4.284-7.447,5.659-11.469c2.465-7.196,4.341-14.652,6.556-21.938
			c3.182-10.598,4.298-21.468,4.768-32.574c-3.063-0.572-5.761-1.048-8.961-1.618c0,1.728,0.169,3.101-0.04,4.421
			c-1.515,11.229-4.619,22.026-11.582,31.115c-3.012,3.88-7.629,6.487-11.463,9.763c-3.363,2.867-6.791,5.663-9.744,8.896
			c-2.105,2.324-3.391,5.407-5.207,7.974c-4.537,6.328-13.866,8.389-20.441,4.27c-2.777-1.745-5.097-2.014-7.678,0.077
			c-3.839,3.012-8.568,2.646-12.476,1.399c-6.791-2.094-13.367-5.088-19.643-8.431c-4.264-2.221-8.342-3.833-13.174-3.963
			c-2.769-0.044-5.137-1.733-6.182-4.911c9.615,0.299,14.075-1.021,20.099-5.908c-3.18-1.586-6.325-3.06-9.38-4.604
			c-13.583-6.945-27.384-13.552-40.647-21.058c-7.561-4.282-14.378-9.948-21.368-15.217c-4.337-3.269-8.489-6.777-12.411-10.495
			c-1.763-1.662-2.793-4.102-4.129-6.171c0.3-0.248,0.602-0.511,0.917-0.777c1.72,1.338,3.489,2.613,5.134,4.022
			c5.471,4.733,10.647,9.868,16.407,14.257c4.711,3.543,10.111,6.109,15.095,9.305c15.439,9.925,31.778,18.157,48.807,24.837
			c8.221,3.245,16.61,6.653,25.846,6.532c3.288-0.032,6.588,0.895,9.913,1.146c6.345,0.446,12.661,0.729,18.344-3.012
			c-2.588-1.89-5.038-3.366-7.054-5.28c-4.936-4.606-10.142-5.524-16.31-2.634c-5.172,2.395-10.366,1.016-14.396-3.172
			c-0.537-0.555-1.369-0.979-2.145-1.207c-5.847-1.586-11.735-3.137-18.183-4.822c1.134-1.355,1.577-2.079,2.235-2.581
			c9.676-7.521,17.211-16.971,23.851-27.103c3.613-5.593,4.84-11.971,1.806-18.376c-0.616-1.275-2.185-2.575-3.577-2.932
			c-8.79-2.115-17.625-3.316-25.032-9.826c-9.154-8.05-19.591-14.62-29.099-22.298c-11.056-8.876-20.441-19.876-34.098-25.327
			c-1.698-0.664-2.736-2.962-4.091-4.503c0.256-0.295,0.545-0.591,0.796-0.874c2.141,1.146,4.474,2.049,6.397,3.449
			c13.129,9.511,26.28,18.984,39.186,28.747c11.262,8.548,22.763,16.643,35.897,22.198c2.365,1.027,4.326,1.216,6.48-0.539
			c3.888-3.215,8.14-6.023,11.905-9.354c3.885-3.402,7.827-6.919,10.983-10.994c10.079-13.12,13.784-28.139,12.78-44.574
			c-0.195-3.99-1.807-5.938-4.944-8.092c-15.231-10.364-30.705-20.334-44.514-32.716c-5.096-4.586-11.772-7.647-18.139-10.529
			c-3.92-1.772-8.587-1.799-12.94-2.641c0.059-0.36,0.077-0.738,0.148-1.099c5.091,0.721,10.188,1.415,16.096,2.235
			c-3.989-5.312-7.237-9.626-10.49-13.917c0.316-0.295,0.666-0.591,1.002-0.886c1.229,1.081,2.547,2.073,3.722,3.248
			c4.505,4.577,8.568,9.707,13.523,13.723c6.929,5.537,14.683,10.055,21.772,15.429c10.976,8.354,21.818,16.771,34.433,22.676
			c9.66,4.568,19.072,9.659,28.643,14.531c0.296,0.14,0.592,0.133,0.922,0.198c0.26-0.236,0.438-0.479,0.705-0.7
			c-4.58-5.1-9.15-10.19-13.751-15.24c-0.321-0.351-0.868-0.607-1.306-0.708c-3.838-0.824-7.678-1.477-11.516-2.377
			c-1.525-0.378-2.959-1.211-5.021-2.053c4.55-3.508,8.409-5.85,13.378-6.299c3.749-0.346,7.582-1.195,10.979-2.646
			c15.268-6.349,21.709-19.483,25.279-34.402c0.848-3.36,1.378-7.595-0.012-10.482c-3.902-8.269-10.718-14.29-18.322-19.411
			c-4.029-2.74-8.449-5.25-11.813-8.711c-7.383-7.609-14.295-15.733-21.262-23.732c-5.21-5.983-11.888-9.567-19.157-12.205
			C279.865,171.537,278.253,171.271,276.685,170.867z M435.255,278.06c-0.974-3.691-2.19-5.525-5.487-5.906
			c-5.188-0.531-10.636-1.157-15.792-0.295c-8.843,1.529-15.93,7.087-23.042,12.195c-3.512,2.508-6.791,5.304-10.39,7.542
			c-11.465,7.161-23.571,13.483-32.581,23.967c-2.035,2.3-4.125,4.518-6.316,6.603c-1.566,1.521-3.432,2.705-5.203,4.107
			c-0.959,0.762-2.299,1.399-2.799,2.434c-6.984,13.733-10.797,28.111-8.239,43.642c1.884,11.233,6.968,20.586,17.098,26.503
			c1.771,1.066,4.134,1.621,6.21,1.557c5.307-0.192,10.621-0.703,15.938-1.397c12.281-1.567,24.951-2.087,35.986-8.876
			c10.082-6.207,20.568-11.941,29.966-19.112c9.622-7.383,14.081-18.742,16.306-30.218c1.56-7.816-0.32-16.126-4.15-23.378
			c-7.529-14.267-15.602-28.207-30.273-37.125C419.874,275.992,427.913,281.541,435.255,278.06z M408.797,405.79
			c-7.527,1.542-14.527,2.9-21.543,4.358c-2.081,0.438-4.689,0.426-6.131,1.675c-4.095,3.537-7.611,7.627-9.76,12.86
			c-6.002,14.768-7.71,30.533-10.914,45.956c-0.617,2.885,0.451,5.543,3.584,6.547c2.979,0.921,5.887,2.74,9.135-0.413
			c10.873-10.59,18.206-23.347,23.512-37.373c3.428-9.239,6.381-18.636,9.635-27.955C407.025,409.52,407.942,407.704,408.797,405.79
			z M389.964,205.856c-2.429,1.181-4.2,2.309-6.165,2.953c-2.842,0.968-3.496,2.793-3.529,5.604
			c-0.123,10.094,1.238,19.945,4.168,29.589c2.362,7.775,4.99,15.134,13.138,19.563c8.247,4.51,15.802,3.124,19.856-4.11
			c2.252-3.986,3.176-8.711,4.508-13.152c0.648-2.304-0.445-3.741-2.657-4.926c-12.106-6.7-20.796-16.619-26.657-29.046
			C391.67,210.362,390.934,208.283,389.964,205.856z M356.536,227.057c0.153,1.579,0.18,2.772,0.438,3.903
			c1.459,7.761,5.463,14.118,10.353,20.163c4.364,5.318,7.513,11.286,7.182,18.521c-0.26,4.811-0.532,9.598-0.761,14.41
			c-0.125,2.483,1.287,3.007,3.309,2.626c2.508-0.487,4.896-3.81,4.725-6.319c-0.279-3.691-0.59-7.383-0.74-11.074
			C380.303,251.126,371.439,237.687,356.536,227.057z"/>
		<path fill-rule="evenodd" clip-rule="evenodd" fill="#FFFFFF" d="M276.685,170.867c1.568,0.404,3.18,0.67,4.729,1.201
			c7.269,2.638,13.947,6.222,19.157,12.205c6.967,7.999,13.879,16.123,21.262,23.732c3.363,3.461,7.783,5.971,11.813,8.711
			c7.604,5.121,14.42,11.143,18.322,19.411c1.39,2.888,0.859,7.122,0.012,10.482c-3.57,14.919-10.012,28.054-25.279,34.402
			c-3.396,1.45-7.229,2.3-10.979,2.646c-4.969,0.449-8.828,2.791-13.378,6.299c2.062,0.842,3.495,1.675,5.021,2.053
			c3.838,0.9,7.678,1.553,11.516,2.377c0.438,0.101,0.984,0.357,1.306,0.708c4.601,5.05,9.171,10.141,13.751,15.24
			c-0.268,0.222-0.445,0.464-0.705,0.7c-0.33-0.065-0.626-0.059-0.922-0.198c-9.57-4.872-18.982-9.963-28.643-14.531
			c-12.615-5.905-23.457-14.321-34.433-22.676c-7.089-5.374-14.843-9.892-21.772-15.429c-4.955-4.016-9.019-9.146-13.523-13.723
			c-1.175-1.175-2.494-2.167-3.722-3.248c-0.336,0.295-0.687,0.591-1.002,0.886c3.253,4.291,6.501,8.605,10.49,13.917
			c-5.909-0.82-11.005-1.515-16.096-2.235c-0.071,0.36-0.089,0.738-0.148,1.099c4.353,0.842,9.02,0.868,12.94,2.641
			c6.367,2.882,13.043,5.943,18.139,10.529c13.809,12.382,29.283,22.352,44.514,32.716c3.138,2.153,4.749,4.102,4.944,8.092
			c1.004,16.436-2.701,31.454-12.78,44.574c-3.157,4.075-7.099,7.592-10.983,10.994c-3.765,3.331-8.017,6.14-11.905,9.354
			c-2.154,1.755-4.115,1.566-6.48,0.539c-13.135-5.556-24.635-13.65-35.897-22.198c-12.906-9.763-26.057-19.236-39.186-28.747
			c-1.924-1.4-4.256-2.304-6.397-3.449c-0.251,0.283-0.54,0.579-0.796,0.874c1.355,1.541,2.394,3.839,4.091,4.503
			c13.656,5.451,23.042,16.451,34.098,25.327c9.507,7.678,19.944,14.248,29.099,22.298c7.407,6.51,16.243,7.711,25.032,9.826
			c1.392,0.356,2.961,1.656,3.577,2.932c3.034,6.405,1.807,12.783-1.806,18.376c-6.64,10.132-14.175,19.581-23.851,27.103
			c-0.658,0.502-1.101,1.226-2.235,2.581c6.448,1.686,12.336,3.236,18.183,4.822c0.776,0.228,1.608,0.652,2.145,1.207
			c4.029,4.188,9.224,5.566,14.396,3.172c6.167-2.891,11.374-1.973,16.31,2.634c2.016,1.914,4.466,3.391,7.054,5.28
			c-5.683,3.741-11.999,3.458-18.344,3.012c-3.325-0.251-6.625-1.178-9.913-1.146c-9.235,0.121-17.625-3.287-25.846-6.532
			c-17.028-6.68-33.367-14.912-48.807-24.837c-4.984-3.195-10.384-5.762-15.095-9.305c-5.76-4.389-10.936-9.523-16.407-14.257
			c-1.645-1.409-3.414-2.685-5.134-4.022c-0.314,0.267-0.617,0.529-0.917,0.777c1.336,2.069,2.367,4.509,4.129,6.171
			c3.922,3.718,8.074,7.227,12.411,10.495c6.99,5.269,13.807,10.935,21.368,15.217c13.263,7.506,27.064,14.112,40.647,21.058
			c3.055,1.544,6.2,3.018,9.38,4.604c-6.024,4.887-10.484,6.207-20.099,5.908c1.045,3.178,3.414,4.867,6.182,4.911
			c4.833,0.13,8.91,1.742,13.174,3.963c6.276,3.343,12.853,6.337,19.643,8.431c3.908,1.246,8.637,1.612,12.476-1.399
			c2.581-2.091,4.9-1.822,7.678-0.077c6.575,4.119,15.904,2.059,20.441-4.27c1.816-2.566,3.102-5.649,5.207-7.974
			c2.953-3.233,6.381-6.029,9.744-8.896c3.834-3.275,8.451-5.883,11.463-9.763c6.963-9.089,10.067-19.886,11.582-31.115
			c0.209-1.32,0.04-2.693,0.04-4.421c3.2,0.57,5.897,1.046,8.961,1.618c-0.47,11.106-1.586,21.977-4.768,32.574
			c-2.215,7.285-4.091,14.741-6.556,21.938c-1.375,4.021-3.639,7.733-5.659,11.469c-0.799,1.527-2.299,2.747-2.919,4.282
			c-2.695,7.087-9.008,8.038-15.238,8.903c-2.363,0.363-3.98-0.635-3.562-3.597c0.353-3.222-0.802-5.906-3.821-7.418
			c-2.775-1.438-5.391-1.143-7.744,1.146c-1.859,1.843-4.074,3.322-5.84,5.241c-5.136,5.791-11.414,8.564-19.149,7.557
			c-1.41-0.174-2.887-1.231-3.92-2.323c-2.361-2.407-4.224-5.233-6.643-7.516c-4.05-3.919-8.917-4.89-13.96-2.288
			c-4.056,2.072-7.333,2.227-10.552-1.441c-1.138-1.252-3.155-2.472-4.779-2.519c-7.983-0.118-13.973-3.887-19.479-9.205
			c-2.813-2.74-6.014-5.117-9.262-7.29c-11.295-7.602-22.887-14.715-33.962-22.632c-12.484-8.915-21.473-20.868-26.723-35.335
			c-5.099-14.044-13.573-26.09-22.377-37.819c-10.246-13.625-10.882-28.038-5.218-43.35c0.416-1.074,1.315-2.093,2.269-2.805
			c3.043-2.279,6.231-4.433,9.375-6.647c10.408-7.294,11.449-14.765,9.402-25.274c-1.122-5.731-1.488-11.342-1.355-16.979
			c0.225-10.899,2.587-21.501,5.836-31.931c1.478-4.793,5.457-4.391,8.708-5.396c3.093-0.909,5.095,1.158,6.418,3.833
			c2.082,4.259,5.93,5.947,10.268,5.978c5.081,0.015,9.156-3.001,10.294-7.663c1.076-4.358,0.633-9.184,0.15-13.732
			c-0.267-2.74-1.659-5.431-2.912-7.976c-3.554-7.354-4.135-14.913-1.993-22.738c1.714-6.248,2.702-12.697,6.494-18.308
			c4.841-7.179,11.446-10.717,19.723-13.354c16.073-5.067,31.886-10.565,43.334-24.825c5.604-6.96,10.628-14.458,16.677-21.093
			c11.622-12.769,25.763-19.953,43.359-20.11c9.012-0.091,17.318,1.793,25.682,5.188c11.688,4.784,24.636,4.043,36.643,7.602
			c20.969,6.257,36.764,18.399,43.272,40.187c0.901,2.982,0.88,6.915-0.308,9.721c-4.024,9.343-8.019,18.805-15.06,26.491
			c-1.169,1.267-2.215,2.743-3.688,3.629c-13.652,8.339-26.738,18.01-43.182,20.443c-3.206,0.476-6.584-0.219-9.939-0.178
			c-13.256,0.184-23.189-6.718-32.369-15.184c-1.625-1.497-2.763-3.52-4.309-5.076c-2.779-2.666-4.994-5.428-9.688-5.959
			c-4.28-0.479-8.19-3.856-12.472-5.354c-3.543-1.249-7.379-1.675-11.128-2.439C276.911,169.913,276.8,170.406,276.685,170.867z
			 M339.755,181.202c1.708-2.186,4.224-3.989,4.733-6.204c1.848-8.321,4.867-15.949,10.266-22.566
			c5.91-7.329,11.077-15.296,19.594-20.479c3.438-2.117,6.475-4.646,10.385-5.892c1.668-0.531,3.098-1.857,4.574-2.811
			c0.041-0.481,0.102-0.966,0.148-1.433c-6.244-2.235-12.334-5.244-18.752-6.508c-10.482-2.059-20.228-1.069-28.128,8.285
			c-5.979,7.097-10.405,14.768-13.384,23.278c-4.155,11.632-1.453,21.879,7.523,30.463
			C337.532,178.146,338.189,179.183,339.755,181.202z M329.948,108.675c-0.281-0.274-0.482-0.562-0.732-0.839
			c-14.352,4.698-26.447,19.729-24.947,31.372c0.579-1.019,0.871-2.114,1.17-3.195c2.664-9.363,6.303-17.927,16.536-21.76
			C324.927,113.143,327.29,110.567,329.948,108.675z"/>
		<path fill-rule="evenodd" clip-rule="evenodd" fill="#FFFFFF" d="M435.255,278.06c-7.343,3.481-15.382-2.067-22.771,2.241
			c14.672,8.918,22.744,22.858,30.273,37.125c3.83,7.252,5.71,15.562,4.15,23.378c-2.225,11.476-6.684,22.835-16.306,30.218
			c-9.397,7.171-19.884,12.905-29.966,19.112c-11.035,6.789-23.705,7.309-35.986,8.876c-5.316,0.694-10.631,1.205-15.938,1.397
			c-2.076,0.064-4.438-0.49-6.21-1.557c-10.13-5.917-15.214-15.27-17.098-26.503c-2.558-15.53,1.255-29.908,8.239-43.642
			c0.5-1.034,1.84-1.672,2.799-2.434c1.771-1.402,3.637-2.587,5.203-4.107c2.191-2.085,4.281-4.303,6.316-6.603
			c9.01-10.483,21.116-16.806,32.581-23.967c3.599-2.238,6.878-5.034,10.39-7.542c7.112-5.108,14.199-10.666,23.042-12.195
			c5.156-0.862,10.604-0.236,15.792,0.295C433.065,272.534,434.282,274.368,435.255,278.06z M338.37,342.269
			c4.48,15.822,8.858,31.388,13.433,46.844c0.442,1.328,2.317,3.086,3.544,3.13c2.657,0.109,5.465-0.481,8.047-1.287
			c5.244-1.707,10.652-3.187,15.434-5.759c9.45-5.059,14.78-13.966,19.635-23.152c2.531-4.907,3.543-9.228,0.391-15.116
			c-4.965-9.277-12.295-13.17-21.936-14.047C362.977,331.597,350.681,337.423,338.37,342.269z"/>
		<path fill-rule="evenodd" clip-rule="evenodd" fill="#FFFFFF" d="M408.797,405.79c-0.855,1.914-1.772,3.729-2.482,5.655
			c-3.254,9.319-6.207,18.716-9.635,27.955c-5.306,14.026-12.639,26.783-23.512,37.373c-3.248,3.153-6.156,1.334-9.135,0.413
			c-3.133-1.004-4.201-3.662-3.584-6.547c3.204-15.423,4.912-31.188,10.914-45.956c2.148-5.233,5.665-9.323,9.76-12.86
			c1.441-1.249,4.05-1.237,6.131-1.675C394.27,408.69,401.27,407.332,408.797,405.79z"/>
		<path fill-rule="evenodd" clip-rule="evenodd" fill="#FFFFFF" d="M389.964,205.856c0.97,2.427,1.706,4.506,2.661,6.476
			c5.861,12.427,14.551,22.346,26.657,29.046c2.212,1.185,3.306,2.622,2.657,4.926c-1.332,4.441-2.256,9.166-4.508,13.152
			c-4.055,7.234-11.609,8.62-19.856,4.11c-8.147-4.43-10.775-11.788-13.138-19.563c-2.93-9.644-4.291-19.495-4.168-29.589
			c0.033-2.812,0.688-4.637,3.529-5.604C385.764,208.165,387.536,207.037,389.964,205.856z"/>
		<path fill-rule="evenodd" clip-rule="evenodd" fill="#FFFFFF" d="M356.536,227.057c14.903,10.63,23.768,24.069,24.504,42.229
			c0.15,3.691,0.461,7.383,0.74,11.074c0.172,2.51-2.217,5.832-4.725,6.319c-2.021,0.381-3.434-0.143-3.309-2.626
			c0.229-4.813,0.501-9.6,0.761-14.41c0.331-7.234-2.817-13.202-7.182-18.521c-4.89-6.045-8.894-12.402-10.353-20.163
			C356.715,229.829,356.689,228.636,356.536,227.057z"/>
		<path fill-rule="evenodd" clip-rule="evenodd" d="M339.755,181.202c-1.566-2.02-2.224-3.057-3.04-3.865
			c-8.977-8.584-11.679-18.831-7.523-30.463c2.979-8.511,7.405-16.182,13.384-23.278c7.9-9.354,17.646-10.344,28.128-8.285
			c6.418,1.264,12.508,4.272,18.752,6.508c-0.047,0.467-0.107,0.951-0.148,1.433c-1.477,0.953-2.906,2.279-4.574,2.811
			c-3.91,1.246-6.947,3.774-10.385,5.892c-8.517,5.183-13.684,13.149-19.594,20.479c-5.398,6.617-8.418,14.245-10.266,22.566
			C343.979,177.213,341.463,179.017,339.755,181.202z M380.153,123.469c-10.777-7.474-30.563-8.238-39.574,7.377
			c-2.537,4.512-5.316,8.953-7.278,13.734c-1.699,4.054-3.79,8.764-3.058,12.738c1.182,6.984,4.391,13.607,10.475,18.695
			c0.855-1.107,2.072-1.97,2.274-3.08c1.579-6.804,4.071-13.208,7.484-19.303C357.708,140.889,367.229,130.518,380.153,123.469z"/>
		<path fill-rule="evenodd" clip-rule="evenodd" d="M329.948,108.675c-2.658,1.893-5.021,4.468-7.974,5.578
			c-10.233,3.833-13.872,12.396-16.536,21.76c-0.299,1.081-0.591,2.177-1.17,3.195c-1.5-11.644,10.596-26.674,24.947-31.372
			C329.465,108.113,329.667,108.4,329.948,108.675z"/>
		<path fill-rule="evenodd" clip-rule="evenodd" d="M338.37,342.269c12.312-4.846,24.607-10.672,38.547-9.388
			c9.641,0.877,16.971,4.77,21.936,14.047c3.152,5.889,2.141,10.209-0.391,15.116c-4.854,9.187-10.185,18.094-19.635,23.152
			c-4.781,2.572-10.189,4.052-15.434,5.759c-2.582,0.806-5.39,1.396-8.047,1.287c-1.227-0.044-3.102-1.802-3.544-3.13
			C347.228,373.656,342.85,358.091,338.37,342.269z M342.159,343.313c4.971,15.811,9.898,31.36,14.814,46.921
			c19.185-4.014,31.533-14.951,38.391-32.356c0.395-0.992,0.753-2.215,0.564-3.192c-1.615-6.786-4.258-12.824-11.232-16.002
			c-7.05-3.204-14.321-2.953-21.432-1.624C356.28,338.389,349.59,341.046,342.159,343.313z"/>
		<path fill-rule="evenodd" clip-rule="evenodd" fill="#FFFFFF" d="M380.153,123.469c-12.924,7.049-22.445,17.42-29.677,30.162
			c-3.413,6.095-5.905,12.499-7.484,19.303c-0.202,1.11-1.419,1.973-2.274,3.08c-6.084-5.088-9.293-11.711-10.475-18.695
			c-0.732-3.975,1.358-8.685,3.058-12.738c1.962-4.781,4.741-9.223,7.278-13.734C349.59,115.23,369.375,115.995,380.153,123.469z"/>
		<path fill-rule="evenodd" clip-rule="evenodd" fill="#FFFFFF" d="M342.159,343.313c7.432-2.268,14.121-4.925,21.105-6.254
			c7.11-1.329,14.382-1.58,21.432,1.624c6.975,3.178,9.617,9.216,11.232,16.002c0.188,0.978-0.17,2.2-0.564,3.192
			c-6.857,17.405-19.206,28.343-38.391,32.356C352.057,374.674,347.129,359.124,342.159,343.313z"/>
	</g>
</g>
<g>
</g>
<g>
</g>
<g>
</g>
<g>
</g>
<g>
</g>
<g>
</g>
</svg>
